COCC_SOLL/test2.vcd
$date
	Fri Jul  4 00:37:18 2025
$end
$version
	Icarus Verilog
$end
$timescale
	1s
$end
$scope module top_level $end
$scope module combo $end
$var wire 1 ! clk $end
$var wire 8 " data_bus [7:0] $end
$var wire 8 # iport [7:0] $end
$var wire 8 $ rega_out [7:0] $end
$var wire 8 % regb_out [7:0] $end
$var wire 1 & reset $end
$var wire 8 ' state [7:0] $end
$var wire 1 ( ram_clk $end
$var wire 8 ) oport [7:0] $end
$var wire 3 * operand2 [2:0] $end
$var wire 3 + operand1 [2:0] $end
$var wire 8 , opcode [7:0] $end
$var wire 3 - oaddr [2:0] $end
$var wire 1 . internal_clk $end
$var wire 8 / instruction [7:0] $end
$var wire 3 0 iaddr [2:0] $end
$var wire 1 1 flag_zero $end
$var wire 1 2 flag_carry $end
$var wire 1 3 cycle_clk $end
$var wire 1 4 c_so $end
$var wire 1 5 c_si $end
$var wire 1 6 c_sd $end
$var wire 1 7 c_ro $end
$var wire 1 8 c_ri $end
$var wire 1 9 c_rfo $end
$var wire 1 : c_rfi $end
$var wire 1 ; c_mi $end
$var wire 1 < c_ii $end
$var wire 1 = c_halt $end
$var wire 1 > c_go $end
$var wire 1 ? c_gi $end
$var wire 1 @ c_eo $end
$var wire 1 A c_ee $end
$var wire 1 B c_da $end
$var wire 1 C c_cs $end
$var wire 1 D c_co $end
$var wire 1 E c_ci $end
$var wire 4 F alu_mode [3:0] $end
$var wire 8 G addr_bus [7:0] $end
$scope module alu0 $end
$var wire 8 H in_a [7:0] $end
$var wire 8 I in_b [7:0] $end
$var wire 8 J out [7:0] $end
$var wire 8 K sqrt_lo [7:0] $end
$var wire 8 L prod_lo [7:0] $end
$var wire 8 M prod_hi [7:0] $end
$var wire 4 N mode [3:0] $end
$var wire 1 O mcry $end
$var wire 1 @ eo $end
$var wire 1 A ee $end
$var reg 1 2 flag_carry $end
$var reg 1 1 flag_zero $end
$var reg 8 P r_out [7:0] $end
$scope module mul0 $end
$var wire 8 Q in_a [7:0] $end
$var wire 8 R in_b [7:0] $end
$var wire 8 S out_lo [7:0] $end
$var wire 8 T out_hi [7:0] $end
$var wire 1 O carry $end
$scope begin partial[0] $end
$var wire 8 U val [7:0] $end
$var parameter 2 V j $end
$upscope $end
$scope begin partial[1] $end
$var wire 8 W val [7:0] $end
$var parameter 2 X j $end
$upscope $end
$scope begin partial[2] $end
$var wire 8 Y val [7:0] $end
$var parameter 3 Z j $end
$upscope $end
$scope begin partial[3] $end
$var wire 8 [ val [7:0] $end
$var parameter 3 \ j $end
$upscope $end
$scope begin partial[4] $end
$var wire 8 ] val [7:0] $end
$var parameter 4 ^ j $end
$upscope $end
$scope begin partial[5] $end
$var wire 8 _ val [7:0] $end
$var parameter 4 ` j $end
$upscope $end
$scope begin partial[6] $end
$var wire 8 a val [7:0] $end
$var parameter 4 b j $end
$upscope $end
$scope begin partial[7] $end
$var wire 8 c val [7:0] $end
$var parameter 4 d j $end
$upscope $end
$upscope $end
$scope module sqrt0 $end
$var wire 8 e in [7:0] $end
$var wire 8 f out [7:0] $end
$upscope $end
$upscope $end
$scope module clk0 $end
$var wire 1 ! clk $end
$var wire 1 & reset $end
$var wire 1 = halt $end
$var reg 3 g cnt [2:0] $end
$var reg 1 3 cycle_clk $end
$var reg 1 . internal_clk $end
$var reg 1 ( ram_clk $end
$upscope $end
$scope module cpu_reg0 $end
$var wire 1 . clk $end
$var wire 8 h idata [7:0] $end
$var wire 8 i odata [7:0] $end
$var wire 8 j rega [7:0] $end
$var wire 8 k regb [7:0] $end
$var wire 1 : we $end
$var wire 1 9 oe $end
$var wire 3 l oaddr [2:0] $end
$var wire 3 m iaddr [2:0] $end
$upscope $end
$scope module ctrl0 $end
$var wire 1 E c_ci $end
$var wire 1 D c_co $end
$var wire 1 C c_cs $end
$var wire 1 ? c_gi $end
$var wire 1 > c_go $end
$var wire 1 ; c_mi $end
$var wire 1 : c_rfi $end
$var wire 1 9 c_rfo $end
$var wire 1 8 c_ri $end
$var wire 1 7 c_ro $end
$var wire 1 6 c_sd $end
$var wire 1 5 c_si $end
$var wire 1 2 flag_carry $end
$var wire 1 1 flag_zero $end
$var wire 1 n jump_allowed $end
$var wire 8 o state [7:0] $end
$var wire 3 p operand2 [2:0] $end
$var wire 3 q operand1 [2:0] $end
$var wire 1 4 c_so $end
$var wire 1 < c_ii $end
$var wire 1 = c_halt $end
$var wire 1 @ c_eo $end
$var wire 1 A c_ee $end
$var wire 1 B c_da $end
$upscope $end
$scope module dcdr0 $end
$var wire 1 B c_da $end
$var wire 3 r operand2 [2:0] $end
$var wire 3 s operand1 [2:0] $end
$var wire 8 t instruction [7:0] $end
$var reg 4 u alu_mode [3:0] $end
$var reg 3 v iaddr [2:0] $end
$var reg 3 w oaddr [2:0] $end
$var reg 8 x opcode [7:0] $end
$upscope $end
$scope module fsm0 $end
$var wire 1 3 clk $end
$var wire 8 y opcode [7:0] $end
$var wire 1 & reset $end
$var wire 1 z reset_cycle $end
$var reg 4 { cycle [3:0] $end
$var reg 8 | state [7:0] $end
$upscope $end
$scope module in0 $end
$var wire 1 ( clk $end
$var wire 8 } in [7:0] $end
$var wire 1 ? oe $end
$var wire 8 ~ out [7:0] $end
$var wire 1 !" we $end
$var reg 8 "" buffer [7:0] $end
$upscope $end
$scope module instr_reg0 $end
$var wire 1 . clk $end
$var wire 1 < en $end
$var wire 8 #" in [7:0] $end
$var reg 8 $" out [7:0] $end
$upscope $end
$scope module mar_reg0 $end
$var wire 1 . clk $end
$var wire 1 ; en $end
$var wire 8 %" in [7:0] $end
$var reg 8 &" out [7:0] $end
$upscope $end
$scope module out0 $end
$var wire 1 . clk $end
$var wire 1 > en $end
$var wire 8 '" in [7:0] $end
$var reg 8 (" out [7:0] $end
$upscope $end
$scope module pc_cnt0 $end
$var wire 1 )" clk $end
$var wire 1 *" down $end
$var wire 8 +" in [7:0] $end
$var wire 1 D oe $end
$var wire 8 ," out [7:0] $end
$var wire 1 & reset $end
$var wire 1 C set $end
$var reg 8 -" r_out [7:0] $end
$upscope $end
$scope module ram0 $end
$var wire 8 ." addr [7:0] $end
$var wire 1 ( clk $end
$var wire 8 /" data_bus [7:0] $end
$var wire 1 7 oe $end
$var wire 1 8 we $end
$upscope $end
$scope module sp_cnt0 $end
$var wire 1 0" clk $end
$var wire 1 6 down $end
$var wire 8 1" in [7:0] $end
$var wire 1 4 oe $end
$var wire 8 2" out [7:0] $end
$var wire 1 3" reset $end
$var wire 1 & set $end
$var reg 8 4" r_out [7:0] $end
$upscope $end
$upscope $end
$upscope $end
$enddefinitions $end
$comment Show the parameter values. $end
$dumpall
b111 d
b110 b
b101 `
b100 ^
b11 \
b10 Z
b1 X
b0 V
$end
#0
$dumpvars
b0 4"
03"
bz 2"
b11111111 1"
00"
bz /"
b0 ."
b0 -"
bz ,"
bz +"
0*"
0)"
b0 ("
bz '"
b0 &"
bz %"
b0 $"
bz #"
bx ""
1!"
bz ~
bz }
b0 |
b0 {
1z
b0 y
b0 x
bx w
bx v
bx u
b0 t
b0 s
b0 r
b0 q
b0 p
b0 o
1n
bx m
bx l
bx k
bx j
bz i
bz h
b100 g
b0xxxx f
bx e
bx c
bx a
bx _
bx ]
bx [
bx Y
bx W
bx U
bx T
bx S
bx R
bx Q
b0 P
xO
bx N
bx M
bx L
b0xxxx K
bz J
bx I
bx H
b0 G
bx F
0E
0D
0C
0B
0A
0@
0?
0>
0=
0<
0;
0:
09
08
07
06
05
04
03
x2
x1
bx 0
b0 /
0.
bx -
b0 ,
b0 +
b0 *
b0 )
0(
b0 '
0&
bx %
bx $
bz #
bz "
0!
$end
#1
1;
1E
b0 "
b0 J
b0 h
b0 i
b0 ~
b0 #"
b0 %"
b0 '"
b0 +"
b0 ,"
b0 /"
b0 2"
0z
1D
b10 '
b10 o
b10 |
b10 g
13
1!
#2
0!
#3
b1 {
bz ""
b1 g
03
1(
1!
#4
0!
#5
b1 "
b1 J
b1 h
b1 i
b1 ~
b1 #"
b1 %"
b1 '"
b1 +"
b1 ,"
b1 /"
b1 2"
b1 -"
1)"
b100 g
0(
1.
1!
#6
0!
#7
17
0;
0E
b1000000 "
b1000000 J
b1000000 h
b1000000 i
b1000000 ~
b1000000 #"
b1000000 %"
b1000000 '"
b1000000 +"
b1000000 ,"
b1000000 /"
b1000000 2"
0D
1<
b11 '
b11 o
b11 |
0)"
b10 g
13
0.
1!
#8
0!
#9
b10 {
b1 g
03
1(
1!
#10
0!
#11
b0 0
b0 m
b0 v
b1000000 ,
b1000000 x
b1000000 y
b1000000 /
b1000000 t
b1000000 $"
b100 g
0(
1.
1!
#12
0!
#13
07
1;
1E
b1 "
b1 J
b1 h
b1 i
b1 ~
b1 #"
b1 %"
b1 '"
b1 +"
b1 ,"
b1 /"
b1 2"
1D
0<
b10 '
b10 o
b10 |
b10 g
13
0.
1!
#14
0!
#15
b11 {
b1 g
03
1(
1!
#16
0!
#17
b10 "
b10 J
b10 h
b10 i
b10 ~
b10 #"
b10 %"
b10 '"
b10 +"
b10 ,"
b10 /"
b10 2"
b10 -"
b1 G
b1 &"
b1 ."
1)"
b100 g
0(
1.
1!
#18
0!
#19
0;
0E
17
1:
b11111111 "
b11111111 J
b11111111 h
b11111111 i
b11111111 ~
b11111111 #"
b11111111 %"
b11111111 '"
b11111111 +"
b11111111 ,"
b11111111 /"
b11111111 2"
0D
b111 '
b111 o
b111 |
0)"
b10 g
13
0.
1!
#20
0!
#21
b100 {
b1 g
03
1(
1!
#22
0!
#23
b1111 K
b1111 f
b11111111 $
b11111111 H
b11111111 Q
b11111111 e
b11111111 j
b100 g
0(
1.
1!
#24
0!
#25
bz "
bz J
bz h
bz i
bz ~
bz #"
bz %"
bz '"
bz +"
bz ,"
bz /"
bz 2"
07
0:
1z
b0 '
b0 o
b0 |
b10 g
13
0.
1!
#26
0!
#27
b0 {
b1 g
03
1(
1!
#28
0!
#29
b100 g
0(
1.
1!
#30
0!
#31
1;
1E
b10 "
b10 J
b10 h
b10 i
b10 ~
b10 #"
b10 %"
b10 '"
b10 +"
b10 ,"
b10 /"
b10 2"
0z
1D
b10 '
b10 o
b10 |
b10 g
13
0.
1!
#32
0!
#33
b1 {
b1 g
03
1(
1!
#34
0!
#35
b11 "
b11 J
b11 h
b11 i
b11 ~
b11 #"
b11 %"
b11 '"
b11 +"
b11 ,"
b11 /"
b11 2"
b11 -"
b10 G
b10 &"
b10 ."
1)"
b100 g
0(
1.
1!
#36
0!
#37
17
0;
0E
b1000001 "
b1000001 J
b1000001 h
b1000001 i
b1000001 ~
b1000001 #"
b1000001 %"
b1000001 '"
b1000001 +"
b1000001 ,"
b1000001 /"
b1000001 2"
0D
1<
b11 '
b11 o
b11 |
0)"
b10 g
13
0.
1!
#38
0!
#39
b10 {
b1 g
03
1(
1!
#40
0!
#41
b1 0
b1 m
b1 v
xn
b1 *
b1 p
b1 r
b1000001 /
b1000001 t
b1000001 $"
b100 g
0(
1.
1!
#42
0!
#43
07
1;
1E
b11 "
b11 J
b11 h
b11 i
b11 ~
b11 #"
b11 %"
b11 '"
b11 +"
b11 ,"
b11 /"
b11 2"
1D
0<
b10 '
b10 o
b10 |
b10 g
13
0.
1!
#44
0!
#45
b11 {
b1 g
03
1(
1!
#46
0!
#47
b100 "
b100 J
b100 h
b100 i
b100 ~
b100 #"
b100 %"
b100 '"
b100 +"
b100 ,"
b100 /"
b100 2"
b100 -"
b11 G
b11 &"
b11 ."
1)"
b100 g
0(
1.
1!
#48
0!
#49
0;
0E
17
1:
b1111 "
b1111 J
b1111 h
b1111 i
b1111 ~
b1111 #"
b1111 %"
b1111 '"
b1111 +"
b1111 ,"
b1111 /"
b1111 2"
0D
b111 '
b111 o
b111 |
0)"
b10 g
13
0.
1!
#50
0!
#51
b100 {
b1 g
03
1(
1!
#52
0!
#53
b11110001 L
b11110001 S
b1110 M
b1110 T
0O
b11111111 U
b11111111 W
b11111111 Y
b11111111 [
b0 ]
b0 _
b0 a
b0 c
b1111 %
b1111 I
b1111 R
b1111 k
b100 g
0(
1.
1!
#54
0!
#55
bz "
bz J
bz h
bz i
bz ~
bz #"
bz %"
bz '"
bz +"
bz ,"
bz /"
bz 2"
07
0:
1z
b0 '
b0 o
b0 |
b10 g
13
0.
1!
#56
0!
#57
b0 {
b1 g
03
1(
1!
#58
0!
#59
b100 g
0(
1.
1!
#60
0!
#61
1;
1E
b100 "
b100 J
b100 h
b100 i
b100 ~
b100 #"
b100 %"
b100 '"
b100 +"
b100 ,"
b100 /"
b100 2"
0z
1D
b10 '
b10 o
b10 |
b10 g
13
0.
1!
#62
0!
#63
b1 {
b1 g
03
1(
1!
#64
0!
#65
b101 "
b101 J
b101 h
b101 i
b101 ~
b101 #"
b101 %"
b101 '"
b101 +"
b101 ,"
b101 /"
b101 2"
b101 -"
b100 G
b100 &"
b100 ."
1)"
b100 g
0(
1.
1!
#66
0!
#67
17
0;
0E
b10101 "
b10101 J
b10101 h
b10101 i
b10101 ~
b10101 #"
b10101 %"
b10101 '"
b10101 +"
b10101 ,"
b10101 /"
b10101 2"
0D
1<
b11 '
b11 o
b11 |
0)"
b10 g
13
0.
1!
#68
0!
#69
b10 {
b1 g
03
1(
1!
#70
0!
#71
b101 F
b101 N
b101 u
b0 0
b0 m
b0 v
b10000 ,
b10000 x
b10000 y
0n
b101 *
b101 p
b101 r
b10 +
b10 q
b10 s
b10101 /
b10101 t
b10101 $"
b100 g
0(
1.
1!
#72
0!
#73
01
bz "
bz J
bz h
bz i
bz ~
bz #"
bz %"
bz '"
bz +"
bz ,"
bz /"
bz 2"
07
b1111 P
1A
0<
b1001 '
b1001 o
b1001 |
b10 g
13
0.
1!
#74
0!
#75
b11 {
b1 g
03
1(
1!
#76
0!
#77
b100 g
0(
1.
1!
#78
0!
#79
1:
b1111 "
b1111 J
b1111 h
b1111 i
b1111 ~
b1111 #"
b1111 %"
b1111 '"
b1111 +"
b1111 ,"
b1111 /"
b1111 2"
0A
1@
b1010 '
b1010 o
b1010 |
b10 g
13
0.
1!
#80
0!
#81
b100 {
b1 g
03
1(
1!
#82
0!
#83
b0 M
b0 T
b11100001 L
b11100001 S
b1111 U
b1111 W
b1111 Y
b1111 [
b11 K
b11 f
b1111 $
b1111 H
b1111 Q
b1111 e
b1111 j
b100 g
0(
1.
1!
#84
0!
#85
0:
1z
bz "
bz J
bz h
bz i
bz ~
bz #"
bz %"
bz '"
bz +"
bz ,"
bz /"
bz 2"
0@
b0 '
b0 o
b0 |
b10 g
13
0.
1!
#86
0!
#87
b0 {
b1 g
03
1(
1!
#88
0!
#89
b100 g
0(
1.
1!
#90
0!
#91
1;
1E
b101 "
b101 J
b101 h
b101 i
b101 ~
b101 #"
b101 %"
b101 '"
b101 +"
b101 ,"
b101 /"
b101 2"
0z
1D
b10 '
b10 o
b10 |
b10 g
13
0.
1!
#92
0!
#93
b1 {
b1 g
03
1(
1!
#94
0!
#95
b110 "
b110 J
b110 h
b110 i
b110 ~
b110 #"
b110 %"
b110 '"
b110 +"
b110 ,"
b110 /"
b110 2"
b110 -"
b101 G
b101 &"
b101 ."
1)"
b100 g
0(
1.
1!
#96
0!
#97
17
0;
0E
b10110000 "
b10110000 J
b10110000 h
b10110000 i
b10110000 ~
b10110000 #"
b10110000 %"
b10110000 '"
b10110000 +"
b10110000 ,"
b10110000 /"
b10110000 2"
0D
1<
b11 '
b11 o
b11 |
0)"
b10 g
13
0.
1!
#98
0!
#99
b10 {
b1 g
03
1(
1!
#100
0!
#101
b0 -
b0 l
b0 w
b110 0
b110 m
b110 v
bx F
bx N
bx u
b10000000 ,
b10000000 x
b10000000 y
1n
b0 *
b0 p
b0 r
b110 +
b110 q
b110 s
b10110000 /
b10110000 t
b10110000 $"
b100 g
0(
1.
1!
#102
0!
#103
07
b1111 "
b1111 J
b1111 h
b1111 i
b1111 ~
b1111 #"
b1111 %"
b1111 '"
b1111 +"
b1111 ,"
b1111 /"
b1111 2"
19
1:
0<
b100 '
b100 o
b100 |
b10 g
13
0.
1!
#104
0!
#105
b11 {
b1 g
03
1(
1!
#106
0!
#107
b100 g
0(
1.
1!
#108
0!
#109
bz "
bz J
bz h
bz i
bz ~
bz #"
bz %"
bz '"
bz +"
bz ,"
bz /"
bz 2"
09
0:
1z
b0 '
b0 o
b0 |
b10 g
13
0.
1!
#110
0!
#111
b0 {
b1 g
03
1(
1!
#112
0!
#113
b100 g
0(
1.
1!
#114
0!
#115
1;
1E
b110 "
b110 J
b110 h
b110 i
b110 ~
b110 #"
b110 %"
b110 '"
b110 +"
b110 ,"
b110 /"
b110 2"
0z
1D
b10 '
b10 o
b10 |
b10 g
13
0.
1!
#116
0!
#117
b1 {
b1 g
03
1(
1!
#118
0!
#119
b111 "
b111 J
b111 h
b111 i
b111 ~
b111 #"
b111 %"
b111 '"
b111 +"
b111 ,"
b111 /"
b111 2"
b111 -"
b110 G
b110 &"
b110 ."
1)"
b100 g
0(
1.
1!
#120
0!
#121
17
0;
0E
b1010000 "
b1010000 J
b1010000 h
b1010000 i
b1010000 ~
b1010000 #"
b1010000 %"
b1010000 '"
b1010000 +"
b1010000 ,"
b1010000 /"
b1010000 2"
0D
1<
b11 '
b11 o
b11 |
0)"
b10 g
13
0.
1!
#122
0!
#123
b10 {
b1 g
03
1(
1!
#124
0!
#125
bx 0
bx m
bx v
b1010000 ,
b1010000 x
b1010000 y
b10 +
b10 q
b10 s
b1010000 /
b1010000 t
b1010000 $"
b100 g
0(
1.
1!
#126
0!
#127
07
1;
1E
b111 "
b111 J
b111 h
b111 i
b111 ~
b111 #"
b111 %"
b111 '"
b111 +"
b111 ,"
b111 /"
b111 2"
1D
0<
b10 '
b10 o
b10 |
b10 g
13
0.
1!
#128
0!
#129
b11 {
b1 g
03
1(
1!
#130
0!
#131
b1000 "
b1000 J
b1000 h
b1000 i
b1000 ~
b1000 #"
b1000 %"
b1000 '"
b1000 +"
b1000 ,"
b1000 /"
b1000 2"
b1000 -"
b111 G
b111 &"
b111 ."
1)"
b100 g
0(
1.
1!
#132
0!
#133
17
0E
b1111111 "
b1111111 J
b1111111 h
b1111111 i
b1111111 ~
b1111111 #"
b1111111 %"
b1111111 '"
b1111111 +"
b1111111 ,"
b1111111 /"
b1111111 2"
0D
b101 '
b101 o
b101 |
0)"
b10 g
13
0.
1!
#134
0!
#135
b100 {
b1 g
03
1(
1!
#136
0!
#137
b1011010 "
b1011010 J
b1011010 h
b1011010 i
b1011010 ~
b1011010 #"
b1011010 %"
b1011010 '"
b1011010 +"
b1011010 ,"
b1011010 /"
b1011010 2"
b1111111 G
b1111111 &"
b1111111 ."
b100 g
0(
1.
1!
#138
0!
#139
b1111 "
b1111 J
b1111 h
b1111 i
b1111 ~
b1111 #"
b1111 %"
b1111 '"
b1111 +"
b1111 ,"
b1111 /"
b1111 2"
07
19
18
0;
b1000 '
b1000 o
b1000 |
b10 g
13
0.
1!
#140
0!
#141
b101 {
b1 g
03
1(
1!
#142
0!
#143
b100 g
0(
1.
1!
#144
0!
#145
bz "
bz J
bz h
bz i
bz ~
bz #"
bz %"
bz '"
bz +"
bz ,"
bz /"
bz 2"
09
08
1z
b0 '
b0 o
b0 |
b10 g
13
0.
1!
#146
0!
#147
b0 {
b1 g
03
1(
1!
#148
0!
#149
b100 g
0(
1.
1!
#150
0!
#151
1;
1E
b1000 "
b1000 J
b1000 h
b1000 i
b1000 ~
b1000 #"
b1000 %"
b1000 '"
b1000 +"
b1000 ,"
b1000 /"
b1000 2"
0z
1D
b10 '
b10 o
b10 |
b10 g
13
0.
1!
#152
0!
#153
b1 {
b1 g
03
1(
1!
#154
0!
#155
b1001 "
b1001 J
b1001 h
b1001 i
b1001 ~
b1001 #"
b1001 %"
b1001 '"
b1001 +"
b1001 ,"
b1001 /"
b1001 2"
b1001 -"
b1000 G
b1000 &"
b1000 ."
1)"
b100 g
0(
1.
1!
#156
0!
#157
17
0;
0E
b101 "
b101 J
b101 h
b101 i
b101 ~
b101 #"
b101 %"
b101 '"
b101 +"
b101 ,"
b101 /"
b101 2"
0D
1<
b11 '
b11 o
b11 |
0)"
b10 g
13
0.
1!
#158
0!
#159
b10 {
b1 g
03
1(
1!
#160
0!
#161
bx -
bx l
bx w
b101 ,
b101 x
b101 y
0n
b101 *
b101 p
b101 r
b0 +
b0 q
b0 s
b101 /
b101 t
b101 $"
b100 g
0(
1.
1!
#162
0!
#163
07
1;
1E
b1001 "
b1001 J
b1001 h
b1001 i
b1001 ~
b1001 #"
b1001 %"
b1001 '"
b1001 +"
b1001 ,"
b1001 /"
b1001 2"
1D
0<
b10 '
b10 o
b10 |
b10 g
13
0.
1!
#164
0!
#165
b11 {
b1 g
03
1(
1!
#166
0!
#167
b1010 "
b1010 J
b1010 h
b1010 i
b1010 ~
b1010 #"
b1010 %"
b1010 '"
b1010 +"
b1010 ,"
b1010 /"
b1010 2"
b1010 -"
b1001 G
b1001 &"
b1001 ."
1)"
b100 g
0(
1.
1!
#168
0!
#169
17
0E
b1111111 "
b1111111 J
b1111111 h
b1111111 i
b1111111 ~
b1111111 #"
b1111111 %"
b1111111 '"
b1111111 +"
b1111111 ,"
b1111111 /"
b1111111 2"
0D
b101 '
b101 o
b101 |
0)"
b10 g
13
0.
1!
#170
0!
#171
b100 {
b1 g
03
1(
1!
#172
0!
#173
b1111 "
b1111 J
b1111 h
b1111 i
b1111 ~
b1111 #"
b1111 %"
b1111 '"
b1111 +"
b1111 ,"
b1111 /"
b1111 2"
b1111111 G
b1111111 &"
b1111111 ."
b100 g
0(
1.
1!
#174
0!
#175
1>
0;
b10010 '
b10010 o
b10010 |
b10 g
13
0.
1!
#176
0!
#177
b101 {
b1 g
03
1(
1!
#178
0!
#179
b1111 )
b1111 ("
b100 g
0(
1.
1!
#180
0!
#181
bz "
bz J
bz h
bz i
bz ~
bz #"
bz %"
bz '"
bz +"
bz ,"
bz /"
bz 2"
1z
0>
07
b0 '
b0 o
b0 |
b10 g
13
0.
1!
#182
0!
#183
b0 {
b1 g
03
1(
1!
#184
0!
#185
b100 g
0(
1.
1!
#186
0!
#187
1;
1E
b1010 "
b1010 J
b1010 h
b1010 i
b1010 ~
b1010 #"
b1010 %"
b1010 '"
b1010 +"
b1010 ,"
b1010 /"
b1010 2"
0z
1D
b10 '
b10 o
b10 |
b10 g
13
0.
1!
#188
0!
#189
b1 {
b1 g
03
1(
1!
#190
0!
#191
b1011 "
b1011 J
b1011 h
b1011 i
b1011 ~
b1011 #"
b1011 %"
b1011 '"
b1011 +"
b1011 ,"
b1011 /"
b1011 2"
b1011 -"
b1010 G
b1010 &"
b1010 ."
1)"
b100 g
0(
1.
1!
#192
0!
#193
17
0;
0E
b1000000 "
b1000000 J
b1000000 h
b1000000 i
b1000000 ~
b1000000 #"
b1000000 %"
b1000000 '"
b1000000 +"
b1000000 ,"
b1000000 /"
b1000000 2"
0D
1<
b11 '
b11 o
b11 |
0)"
b10 g
13
0.
1!
#194
0!
#195
b10 {
b1 g
03
1(
1!
#196
0!
#197
b0 0
b0 m
b0 v
b1000000 ,
b1000000 x
b1000000 y
1n
b0 *
b0 p
b0 r
b1000000 /
b1000000 t
b1000000 $"
b100 g
0(
1.
1!
#198
0!
#199
07
1;
1E
b1011 "
b1011 J
b1011 h
b1011 i
b1011 ~
b1011 #"
b1011 %"
b1011 '"
b1011 +"
b1011 ,"
b1011 /"
b1011 2"
1D
0<
b10 '
b10 o
b10 |
b10 g
13
0.
1!
#200
0!
#201
b11 {
b1 g
03
1(
1!
#202
0!
#203
b1100 "
b1100 J
b1100 h
b1100 i
b1100 ~
b1100 #"
b1100 %"
b1100 '"
b1100 +"
b1100 ,"
b1100 /"
b1100 2"
b1100 -"
b1011 G
b1011 &"
b1011 ."
1)"
b100 g
0(
1.
1!
#204
0!
#205
0;
0E
17
1:
b11111111 "
b11111111 J
b11111111 h
b11111111 i
b11111111 ~
b11111111 #"
b11111111 %"
b11111111 '"
b11111111 +"
b11111111 ,"
b11111111 /"
b11111111 2"
0D
b111 '
b111 o
b111 |
0)"
b10 g
13
0.
1!
#206
0!
#207
b100 {
b1 g
03
1(
1!
#208
0!
#209
b1110 M
b1110 T
b11110001 L
b11110001 S
b11111111 U
b11111111 W
b11111111 Y
b11111111 [
b1111 K
b1111 f
b11111111 $
b11111111 H
b11111111 Q
b11111111 e
b11111111 j
b100 g
0(
1.
1!
#210
0!
#211
bz "
bz J
bz h
bz i
bz ~
bz #"
bz %"
bz '"
bz +"
bz ,"
bz /"
bz 2"
07
0:
1z
b0 '
b0 o
b0 |
b10 g
13
0.
1!
#212
0!
#213
b0 {
b1 g
03
1(
1!
#214
0!
#215
b100 g
0(
1.
1!
#216
0!
#217
1;
1E
b1100 "
b1100 J
b1100 h
b1100 i
b1100 ~
b1100 #"
b1100 %"
b1100 '"
b1100 +"
b1100 ,"
b1100 /"
b1100 2"
0z
1D
b10 '
b10 o
b10 |
b10 g
13
0.
1!
#218
0!
#219
b1 {
b1 g
03
1(
1!
#220
0!
#221
b1101 "
b1101 J
b1101 h
b1101 i
b1101 ~
b1101 #"
b1101 %"
b1101 '"
b1101 +"
b1101 ,"
b1101 /"
b1101 2"
b1101 -"
b1100 G
b1100 &"
b1100 ."
1)"
b100 g
0(
1.
1!
#222
0!
#223
17
0;
0E
b10110 "
b10110 J
b10110 h
b10110 i
b10110 ~
b10110 #"
b10110 %"
b10110 '"
b10110 +"
b10110 ,"
b10110 /"
b10110 2"
0D
1<
b11 '
b11 o
b11 |
0)"
b10 g
13
0.
1!
#224
0!
#225
b10 {
b1 g
03
1(
1!
#226
0!
#227
b110 F
b110 N
b110 u
b0 0
b0 m
b0 v
b10000 ,
b10000 x
b10000 y
0n
b110 *
b110 p
b110 r
b10 +
b10 q
b10 s
b10110 /
b10110 t
b10110 $"
b100 g
0(
1.
1!
#228
0!
#229
bz "
bz J
bz h
bz i
bz ~
bz #"
bz %"
bz '"
bz +"
bz ,"
bz /"
bz 2"
07
b11111111 P
1A
0<
b1001 '
b1001 o
b1001 |
b10 g
13
0.
1!
#230
0!
#231
b11 {
b1 g
03
1(
1!
#232
0!
#233
b100 g
0(
1.
1!
#234
0!
#235
1:
b11111111 "
b11111111 J
b11111111 h
b11111111 i
b11111111 ~
b11111111 #"
b11111111 %"
b11111111 '"
b11111111 +"
b11111111 ,"
b11111111 /"
b11111111 2"
0A
1@
b1010 '
b1010 o
b1010 |
b10 g
13
0.
1!
#236
0!
#237
b100 {
b1 g
03
1(
1!
#238
0!
#239
b100 g
0(
1.
1!
#240
0!
#241
0:
1z
bz "
bz J
bz h
bz i
bz ~
bz #"
bz %"
bz '"
bz +"
bz ,"
bz /"
bz 2"
0@
b0 '
b0 o
b0 |
b10 g
13
0.
1!
#242
0!
#243
b0 {
b1 g
03
1(
1!
#244
0!
#245
b100 g
0(
1.
1!
#246
0!
#247
1;
1E
b1101 "
b1101 J
b1101 h
b1101 i
b1101 ~
b1101 #"
b1101 %"
b1101 '"
b1101 +"
b1101 ,"
b1101 /"
b1101 2"
0z
1D
b10 '
b10 o
b10 |
b10 g
13
0.
1!
#248
0!
#249
b1 {
b1 g
03
1(
1!
#250
0!
#251
b1110 "
b1110 J
b1110 h
b1110 i
b1110 ~
b1110 #"
b1110 %"
b1110 '"
b1110 +"
b1110 ,"
b1110 /"
b1110 2"
b1110 -"
b1101 G
b1101 &"
b1101 ."
1)"
b100 g
0(
1.
1!
#252
0!
#253
17
0;
0E
b10101000 "
b10101000 J
b10101000 h
b10101000 i
b10101000 ~
b10101000 #"
b10101000 %"
b10101000 '"
b10101000 +"
b10101000 ,"
b10101000 /"
b10101000 2"
0D
1<
b11 '
b11 o
b11 |
0)"
b10 g
13
0.
1!
#254
0!
#255
b10 {
b1 g
03
1(
1!
#256
0!
#257
b0 -
b0 l
b0 w
b101 0
b101 m
b101 v
bx F
bx N
bx u
b10000000 ,
b10000000 x
b10000000 y
1n
b0 *
b0 p
b0 r
b101 +
b101 q
b101 s
b10101000 /
b10101000 t
b10101000 $"
b100 g
0(
1.
1!
#258
0!
#259
07
b11111111 "
b11111111 J
b11111111 h
b11111111 i
b11111111 ~
b11111111 #"
b11111111 %"
b11111111 '"
b11111111 +"
b11111111 ,"
b11111111 /"
b11111111 2"
19
1:
0<
b100 '
b100 o
b100 |
b10 g
13
0.
1!
#260
0!
#261
b11 {
b1 g
03
1(
1!
#262
0!
#263
b100 g
0(
1.
1!
#264
0!
#265
bz "
bz J
bz h
bz i
bz ~
bz #"
bz %"
bz '"
bz +"
bz ,"
bz /"
bz 2"
09
0:
1z
b0 '
b0 o
b0 |
b10 g
13
0.
1!
#266
0!
#267
b0 {
b1 g
03
1(
1!
#268
0!
#269
b100 g
0(
1.
1!
#270
0!
#271
1;
1E
b1110 "
b1110 J
b1110 h
b1110 i
b1110 ~
b1110 #"
b1110 %"
b1110 '"
b1110 +"
b1110 ,"
b1110 /"
b1110 2"
0z
1D
b10 '
b10 o
b10 |
b10 g
13
0.
1!
#272
0!
#273
b1 {
b1 g
03
1(
1!
#274
0!
#275
b1111 "
b1111 J
b1111 h
b1111 i
b1111 ~
b1111 #"
b1111 %"
b1111 '"
b1111 +"
b1111 ,"
b1111 /"
b1111 2"
b1111 -"
b1110 G
b1110 &"
b1110 ."
1)"
b100 g
0(
1.
1!
#276
0!
#277
17
0;
0E
b1010000 "
b1010000 J
b1010000 h
b1010000 i
b1010000 ~
b1010000 #"
b1010000 %"
b1010000 '"
b1010000 +"
b1010000 ,"
b1010000 /"
b1010000 2"
0D
1<
b11 '
b11 o
b11 |
0)"
b10 g
13
0.
1!
#278
0!
#279
b10 {
b1 g
03
1(
1!
#280
0!
