Alis_CoCC/test2.vcd
$date
	Fri Jul  4 00:03:15 2025
$end
$version
	Icarus Verilog
$end
$timescale
	1s
$end
$scope module top_level $end
$scope module combo $end
$var wire 1 ! clk $end
$var wire 8 " data_bus [7:0] $end
$var wire 1 # pcclk $end
$var wire 8 $ reg_a [7:0] $end
$var wire 8 % reg_b [7:0] $end
$var wire 8 & state [7:0] $end
$var wire 1 ' ram_clk $end
$var wire 3 ( operand2 [2:0] $end
$var wire 3 ) operand1 [2:0] $end
$var wire 8 * opcode [7:0] $end
$var wire 3 + oaddr [2:0] $end
$var wire 1 , internal_clk $end
$var wire 8 - instruction [7:0] $end
$var wire 3 . iaddr [2:0] $end
$var wire 1 / flag_zero $end
$var wire 1 0 flag_carry $end
$var wire 1 1 cycle_clk $end
$var wire 1 2 c_so $end
$var wire 1 3 c_si $end
$var wire 1 4 c_sd $end
$var wire 1 5 c_ro $end
$var wire 1 6 c_ri $end
$var wire 1 7 c_rfo $end
$var wire 1 8 c_rfi $end
$var wire 1 9 c_mi $end
$var wire 1 : c_ii $end
$var wire 1 ; c_halt $end
$var wire 1 < c_eo $end
$var wire 1 = c_ee $end
$var wire 1 > c_da $end
$var wire 1 ? c_cs $end
$var wire 1 @ c_co $end
$var wire 1 A c_ci $end
$var wire 4 B alu_mode [3:0] $end
$var wire 8 C addrbus [7:0] $end
$var reg 1 D reset $end
$scope module FINITO $end
$var wire 1 D reset $end
$var wire 1 E reset_cycle $end
$var wire 8 F opcode [7:0] $end
$var wire 1 1 clk $end
$var reg 4 G cycle [3:0] $end
$var reg 8 H state [7:0] $end
$upscope $end
$scope module IRelai $end
$var wire 8 I in [7:0] $end
$var wire 8 J out [7:0] $end
$var wire 1 K h8 $end
$var wire 1 L h7 $end
$var wire 1 M h6 $end
$var wire 1 N h5 $end
$var wire 1 O h4 $end
$var wire 1 P h3 $end
$var wire 1 Q h2 $end
$var wire 1 R h1 $end
$var wire 1 : en $end
$var wire 1 , clk $end
$scope module d1 $end
$var wire 1 R D $end
$var wire 1 S mitte $end
$var wire 1 , clk $end
$var wire 1 T Q $end
$scope module Latch $end
$var wire 1 R D $end
$var wire 1 S Q $end
$var wire 1 U a $end
$var wire 1 V b $end
$var wire 1 W clk $end
$var wire 1 X nq $end
$upscope $end
$scope module catch $end
$var wire 1 S D $end
$var wire 1 T Q $end
$var wire 1 Y a $end
$var wire 1 Z b $end
$var wire 1 [ nq $end
$var wire 1 , clk $end
$upscope $end
$upscope $end
$scope module d2 $end
$var wire 1 Q D $end
$var wire 1 \ mitte $end
$var wire 1 , clk $end
$var wire 1 ] Q $end
$scope module Latch $end
$var wire 1 Q D $end
$var wire 1 \ Q $end
$var wire 1 ^ a $end
$var wire 1 _ b $end
$var wire 1 ` clk $end
$var wire 1 a nq $end
$upscope $end
$scope module catch $end
$var wire 1 \ D $end
$var wire 1 ] Q $end
$var wire 1 b a $end
$var wire 1 c b $end
$var wire 1 d nq $end
$var wire 1 , clk $end
$upscope $end
$upscope $end
$scope module d3 $end
$var wire 1 P D $end
$var wire 1 e mitte $end
$var wire 1 , clk $end
$var wire 1 f Q $end
$scope module Latch $end
$var wire 1 P D $end
$var wire 1 e Q $end
$var wire 1 g a $end
$var wire 1 h b $end
$var wire 1 i clk $end
$var wire 1 j nq $end
$upscope $end
$scope module catch $end
$var wire 1 e D $end
$var wire 1 f Q $end
$var wire 1 k a $end
$var wire 1 l b $end
$var wire 1 m nq $end
$var wire 1 , clk $end
$upscope $end
$upscope $end
$scope module d4 $end
$var wire 1 O D $end
$var wire 1 n mitte $end
$var wire 1 , clk $end
$var wire 1 o Q $end
$scope module Latch $end
$var wire 1 O D $end
$var wire 1 n Q $end
$var wire 1 p a $end
$var wire 1 q b $end
$var wire 1 r clk $end
$var wire 1 s nq $end
$upscope $end
$scope module catch $end
$var wire 1 n D $end
$var wire 1 o Q $end
$var wire 1 t a $end
$var wire 1 u b $end
$var wire 1 v nq $end
$var wire 1 , clk $end
$upscope $end
$upscope $end
$scope module d5 $end
$var wire 1 N D $end
$var wire 1 w mitte $end
$var wire 1 , clk $end
$var wire 1 x Q $end
$scope module Latch $end
$var wire 1 N D $end
$var wire 1 w Q $end
$var wire 1 y a $end
$var wire 1 z b $end
$var wire 1 { clk $end
$var wire 1 | nq $end
$upscope $end
$scope module catch $end
$var wire 1 w D $end
$var wire 1 x Q $end
$var wire 1 } a $end
$var wire 1 ~ b $end
$var wire 1 !" nq $end
$var wire 1 , clk $end
$upscope $end
$upscope $end
$scope module d6 $end
$var wire 1 M D $end
$var wire 1 "" mitte $end
$var wire 1 , clk $end
$var wire 1 #" Q $end
$scope module Latch $end
$var wire 1 M D $end
$var wire 1 "" Q $end
$var wire 1 $" a $end
$var wire 1 %" b $end
$var wire 1 &" clk $end
$var wire 1 '" nq $end
$upscope $end
$scope module catch $end
$var wire 1 "" D $end
$var wire 1 #" Q $end
$var wire 1 (" a $end
$var wire 1 )" b $end
$var wire 1 *" nq $end
$var wire 1 , clk $end
$upscope $end
$upscope $end
$scope module d7 $end
$var wire 1 L D $end
$var wire 1 +" mitte $end
$var wire 1 , clk $end
$var wire 1 ," Q $end
$scope module Latch $end
$var wire 1 L D $end
$var wire 1 +" Q $end
$var wire 1 -" a $end
$var wire 1 ." b $end
$var wire 1 /" clk $end
$var wire 1 0" nq $end
$upscope $end
$scope module catch $end
$var wire 1 +" D $end
$var wire 1 ," Q $end
$var wire 1 1" a $end
$var wire 1 2" b $end
$var wire 1 3" nq $end
$var wire 1 , clk $end
$upscope $end
$upscope $end
$scope module d8 $end
$var wire 1 K D $end
$var wire 1 4" mitte $end
$var wire 1 , clk $end
$var wire 1 5" Q $end
$scope module Latch $end
$var wire 1 K D $end
$var wire 1 4" Q $end
$var wire 1 6" a $end
$var wire 1 7" b $end
$var wire 1 8" clk $end
$var wire 1 9" nq $end
$upscope $end
$scope module catch $end
$var wire 1 4" D $end
$var wire 1 5" Q $end
$var wire 1 :" a $end
$var wire 1 ;" b $end
$var wire 1 <" nq $end
$var wire 1 , clk $end
$upscope $end
$upscope $end
$upscope $end
$scope module MARina $end
$var wire 8 =" in [7:0] $end
$var wire 8 >" out [7:0] $end
$var wire 1 ?" h8 $end
$var wire 1 @" h7 $end
$var wire 1 A" h6 $end
$var wire 1 B" h5 $end
$var wire 1 C" h4 $end
$var wire 1 D" h3 $end
$var wire 1 E" h2 $end
$var wire 1 F" h1 $end
$var wire 1 9 en $end
$var wire 1 , clk $end
$scope module d1 $end
$var wire 1 F" D $end
$var wire 1 G" mitte $end
$var wire 1 , clk $end
$var wire 1 H" Q $end
$scope module Latch $end
$var wire 1 F" D $end
$var wire 1 G" Q $end
$var wire 1 I" a $end
$var wire 1 J" b $end
$var wire 1 K" clk $end
$var wire 1 L" nq $end
$upscope $end
$scope module catch $end
$var wire 1 G" D $end
$var wire 1 H" Q $end
$var wire 1 M" a $end
$var wire 1 N" b $end
$var wire 1 O" nq $end
$var wire 1 , clk $end
$upscope $end
$upscope $end
$scope module d2 $end
$var wire 1 E" D $end
$var wire 1 P" mitte $end
$var wire 1 , clk $end
$var wire 1 Q" Q $end
$scope module Latch $end
$var wire 1 E" D $end
$var wire 1 P" Q $end
$var wire 1 R" a $end
$var wire 1 S" b $end
$var wire 1 T" clk $end
$var wire 1 U" nq $end
$upscope $end
$scope module catch $end
$var wire 1 P" D $end
$var wire 1 Q" Q $end
$var wire 1 V" a $end
$var wire 1 W" b $end
$var wire 1 X" nq $end
$var wire 1 , clk $end
$upscope $end
$upscope $end
$scope module d3 $end
$var wire 1 D" D $end
$var wire 1 Y" mitte $end
$var wire 1 , clk $end
$var wire 1 Z" Q $end
$scope module Latch $end
$var wire 1 D" D $end
$var wire 1 Y" Q $end
$var wire 1 [" a $end
$var wire 1 \" b $end
$var wire 1 ]" clk $end
$var wire 1 ^" nq $end
$upscope $end
$scope module catch $end
$var wire 1 Y" D $end
$var wire 1 Z" Q $end
$var wire 1 _" a $end
$var wire 1 `" b $end
$var wire 1 a" nq $end
$var wire 1 , clk $end
$upscope $end
$upscope $end
$scope module d4 $end
$var wire 1 C" D $end
$var wire 1 b" mitte $end
$var wire 1 , clk $end
$var wire 1 c" Q $end
$scope module Latch $end
$var wire 1 C" D $end
$var wire 1 b" Q $end
$var wire 1 d" a $end
$var wire 1 e" b $end
$var wire 1 f" clk $end
$var wire 1 g" nq $end
$upscope $end
$scope module catch $end
$var wire 1 b" D $end
$var wire 1 c" Q $end
$var wire 1 h" a $end
$var wire 1 i" b $end
$var wire 1 j" nq $end
$var wire 1 , clk $end
$upscope $end
$upscope $end
$scope module d5 $end
$var wire 1 B" D $end
$var wire 1 k" mitte $end
$var wire 1 , clk $end
$var wire 1 l" Q $end
$scope module Latch $end
$var wire 1 B" D $end
$var wire 1 k" Q $end
$var wire 1 m" a $end
$var wire 1 n" b $end
$var wire 1 o" clk $end
$var wire 1 p" nq $end
$upscope $end
$scope module catch $end
$var wire 1 k" D $end
$var wire 1 l" Q $end
$var wire 1 q" a $end
$var wire 1 r" b $end
$var wire 1 s" nq $end
$var wire 1 , clk $end
$upscope $end
$upscope $end
$scope module d6 $end
$var wire 1 A" D $end
$var wire 1 t" mitte $end
$var wire 1 , clk $end
$var wire 1 u" Q $end
$scope module Latch $end
$var wire 1 A" D $end
$var wire 1 t" Q $end
$var wire 1 v" a $end
$var wire 1 w" b $end
$var wire 1 x" clk $end
$var wire 1 y" nq $end
$upscope $end
$scope module catch $end
$var wire 1 t" D $end
$var wire 1 u" Q $end
$var wire 1 z" a $end
$var wire 1 {" b $end
$var wire 1 |" nq $end
$var wire 1 , clk $end
$upscope $end
$upscope $end
$scope module d7 $end
$var wire 1 @" D $end
$var wire 1 }" mitte $end
$var wire 1 , clk $end
$var wire 1 ~" Q $end
$scope module Latch $end
$var wire 1 @" D $end
$var wire 1 }" Q $end
$var wire 1 !# a $end
$var wire 1 "# b $end
$var wire 1 ## clk $end
$var wire 1 $# nq $end
$upscope $end
$scope module catch $end
$var wire 1 }" D $end
$var wire 1 ~" Q $end
$var wire 1 %# a $end
$var wire 1 &# b $end
$var wire 1 '# nq $end
$var wire 1 , clk $end
$upscope $end
$upscope $end
$scope module d8 $end
$var wire 1 ?" D $end
$var wire 1 (# mitte $end
$var wire 1 , clk $end
$var wire 1 )# Q $end
$scope module Latch $end
$var wire 1 ?" D $end
$var wire 1 (# Q $end
$var wire 1 *# a $end
$var wire 1 +# b $end
$var wire 1 ,# clk $end
$var wire 1 -# nq $end
$upscope $end
$scope module catch $end
$var wire 1 (# D $end
$var wire 1 )# Q $end
$var wire 1 .# a $end
$var wire 1 /# b $end
$var wire 1 0# nq $end
$var wire 1 , clk $end
$upscope $end
$upscope $end
$upscope $end
$scope module bazamba $end
$var wire 8 1# addr [7:0] $end
$var wire 8 2# bus [7:0] $end
$var wire 1 6 we $end
$var wire 1 5 oe $end
$var wire 1 ' clk $end
$upscope $end
$scope module coc $end
$var wire 8 3# idata [7:0] $end
$var wire 8 4# odata [7:0] $end
$var wire 8 5# rega [7:0] $end
$var wire 8 6# regb [7:0] $end
$var wire 1 8 we $end
$var wire 1 7 oe $end
$var wire 3 7# oaddr [2:0] $end
$var wire 3 8# iaddr [2:0] $end
$var wire 1 , clk $end
$upscope $end
$scope module cocks $end
$var wire 1 ! clk $end
$var wire 1 D reset $end
$var wire 1 ; halt $end
$var reg 3 9# cnt [2:0] $end
$var reg 1 1 cycle_clk $end
$var reg 1 , internal_clk $end
$var reg 1 ' ram_clk $end
$upscope $end
$scope module deco $end
$var wire 8 :# instruction [7:0] $end
$var wire 3 ;# operand2 [2:0] $end
$var wire 3 <# operand1 [2:0] $end
$var wire 1 > c_da $end
$var reg 4 =# alu_mode [3:0] $end
$var reg 3 ># iaddr [2:0] $end
$var reg 3 ?# oaddr [2:0] $end
$var reg 8 @# opcode [7:0] $end
$upscope $end
$scope module malu $end
$var wire 8 A# in_a [7:0] $end
$var wire 8 B# in_b [7:0] $end
$var wire 4 C# mode [3:0] $end
$var wire 8 D# out [7:0] $end
$var wire 8 E# xoder [7:0] $end
$var wire 8 F# und [7:0] $end
$var wire 1 G# subc $end
$var wire 8 H# sub [7:0] $end
$var wire 8 I# sqrt [7:0] $end
$var wire 8 J# oder [7:0] $end
$var wire 1 < eo $end
$var wire 1 = ee $end
$var wire 1 K# cad $end
$var wire 8 L# add [7:0] $end
$var reg 1 0 flag_carry $end
$var reg 1 / flag_zero $end
$var reg 8 M# r_out [7:0] $end
$scope module gore $end
$var wire 8 N# a [7:0] $end
$var wire 8 O# b [7:0] $end
$var wire 8 P# out [7:0] $end
$upscope $end
$scope module hixbi $end
$var wire 8 Q# a [7:0] $end
$var wire 8 R# b [7:0] $end
$var wire 8 S# out [7:0] $end
$upscope $end
$scope module land $end
$var wire 8 T# a [7:0] $end
$var wire 8 U# b [7:0] $end
$var wire 8 V# out [7:0] $end
$upscope $end
$scope module nadder $end
$var wire 8 W# in_a [7:0] $end
$var wire 8 X# in_b [7:0] $end
$var wire 8 Y# out_diff [7:0] $end
$var wire 1 G# out_carry $end
$var wire 8 Z# cin [7:0] $end
$scope module S0 $end
$var wire 1 [# a $end
$var wire 1 \# b $end
$var wire 1 ]# cin $end
$var wire 1 ^# cout $end
$var wire 1 _# diff $end
$upscope $end
$scope module S1 $end
$var wire 1 `# a $end
$var wire 1 a# b $end
$var wire 1 b# cin $end
$var wire 1 c# cout $end
$var wire 1 d# diff $end
$upscope $end
$scope module S2 $end
$var wire 1 e# a $end
$var wire 1 f# b $end
$var wire 1 g# cin $end
$var wire 1 h# cout $end
$var wire 1 i# diff $end
$upscope $end
$scope module S3 $end
$var wire 1 j# a $end
$var wire 1 k# b $end
$var wire 1 l# cin $end
$var wire 1 m# cout $end
$var wire 1 n# diff $end
$upscope $end
$scope module S4 $end
$var wire 1 o# a $end
$var wire 1 p# b $end
$var wire 1 q# cin $end
$var wire 1 r# cout $end
$var wire 1 s# diff $end
$upscope $end
$scope module S5 $end
$var wire 1 t# a $end
$var wire 1 u# b $end
$var wire 1 v# cin $end
$var wire 1 w# cout $end
$var wire 1 x# diff $end
$upscope $end
$scope module S6 $end
$var wire 1 y# a $end
$var wire 1 z# b $end
$var wire 1 {# cin $end
$var wire 1 |# cout $end
$var wire 1 }# diff $end
$upscope $end
$scope module S7 $end
$var wire 1 ~# a $end
$var wire 1 !$ b $end
$var wire 1 "$ cin $end
$var wire 1 G# cout $end
$var wire 1 #$ diff $end
$upscope $end
$upscope $end
$scope module squirty $end
$var wire 8 $$ A [7:0] $end
$var wire 8 %$ Sqrt [7:0] $end
$upscope $end
$scope module vadder $end
$var wire 8 &$ in_a [7:0] $end
$var wire 8 '$ in_b [7:0] $end
$var wire 8 ($ out_sum [7:0] $end
$var wire 1 K# out_carry $end
$var wire 8 )$ c [7:0] $end
$scope module FA0 $end
$var wire 1 *$ a $end
$var wire 1 +$ b $end
$var wire 1 ,$ cin $end
$var wire 1 -$ cout $end
$var wire 1 .$ sum $end
$upscope $end
$scope module FA1 $end
$var wire 1 /$ a $end
$var wire 1 0$ b $end
$var wire 1 1$ cin $end
$var wire 1 2$ cout $end
$var wire 1 3$ sum $end
$upscope $end
$scope module FA2 $end
$var wire 1 4$ a $end
$var wire 1 5$ b $end
$var wire 1 6$ cin $end
$var wire 1 7$ cout $end
$var wire 1 8$ sum $end
$upscope $end
$scope module FA3 $end
$var wire 1 9$ a $end
$var wire 1 :$ b $end
$var wire 1 ;$ cin $end
$var wire 1 <$ cout $end
$var wire 1 =$ sum $end
$upscope $end
$scope module FA4 $end
$var wire 1 >$ a $end
$var wire 1 ?$ b $end
$var wire 1 @$ cin $end
$var wire 1 A$ cout $end
$var wire 1 B$ sum $end
$upscope $end
$scope module FA5 $end
$var wire 1 C$ a $end
$var wire 1 D$ b $end
$var wire 1 E$ cin $end
$var wire 1 F$ cout $end
$var wire 1 G$ sum $end
$upscope $end
$scope module FA6 $end
$var wire 1 H$ a $end
$var wire 1 I$ b $end
$var wire 1 J$ cin $end
$var wire 1 K$ cout $end
$var wire 1 L$ sum $end
$upscope $end
$scope module FA7 $end
$var wire 1 M$ a $end
$var wire 1 N$ b $end
$var wire 1 O$ cin $end
$var wire 1 K# cout $end
$var wire 1 P$ sum $end
$upscope $end
$upscope $end
$upscope $end
$scope module pc $end
$var wire 1 # clk $end
$var wire 1 Q$ down $end
$var wire 8 R$ in [7:0] $end
$var wire 8 S$ out [7:0] $end
$var wire 1 D reset $end
$var wire 1 ? set $end
$var wire 1 @ oe $end
$var reg 8 T$ r_out [7:0] $end
$upscope $end
$scope module rolo $end
$var wire 1 0 flag_carry $end
$var wire 1 / flag_zero $end
$var wire 1 U$ jump_allowed $end
$var wire 3 V$ operand1 [2:0] $end
$var wire 3 W$ operand2 [2:0] $end
$var wire 8 X$ state [7:0] $end
$var wire 1 2 c_so $end
$var wire 1 3 c_si $end
$var wire 1 4 c_sd $end
$var wire 1 5 c_ro $end
$var wire 1 6 c_ri $end
$var wire 1 7 c_rfo $end
$var wire 1 8 c_rfi $end
$var wire 1 9 c_mi $end
$var wire 1 : c_ii $end
$var wire 1 ; c_halt $end
$var wire 1 < c_eo $end
$var wire 1 = c_ee $end
$var wire 1 > c_da $end
$var wire 1 ? c_cs $end
$var wire 1 @ c_co $end
$var wire 1 A c_ci $end
$upscope $end
$scope module schdeck $end
$var wire 1 , clk $end
$var wire 1 4 down $end
$var wire 8 Y$ in [7:0] $end
$var wire 1 2 oe $end
$var wire 8 Z$ out [7:0] $end
$var wire 1 D reset $end
$var wire 1 D set $end
$var reg 8 [$ r_out [7:0] $end
$upscope $end
$upscope $end
$upscope $end
$enddefinitions $end
$comment Show the parameter values. $end
$dumpall
$end
#0
$dumpvars
b0 [$
bz Z$
b11111111 Y$
b0 X$
bx W$
bx V$
xU$
b0 T$
bz S$
bz R$
0Q$
xP$
xO$
xN$
xM$
xL$
xK$
xJ$
xI$
xH$
xG$
xF$
xE$
xD$
xC$
xB$
xA$
x@$
x?$
x>$
x=$
x<$
x;$
x:$
x9$
x8$
x7$
x6$
x5$
x4$
x3$
x2$
x1$
x0$
x/$
x.$
x-$
0,$
x+$
x*$
bzxxxxxxx )$
bx ($
bx '$
bx &$
b0xxxxx %$
bx $$
x#$
x"$
x!$
x~#
x}#
x|#
x{#
xz#
xy#
xx#
xw#
xv#
xu#
xt#
xs#
xr#
xq#
xp#
xo#
xn#
xm#
xl#
xk#
xj#
xi#
xh#
xg#
xf#
xe#
xd#
xc#
xb#
xa#
x`#
x_#
x^#
0]#
x\#
x[#
bzxxxxxxx Z#
bx Y#
bx X#
bx W#
bx V#
bx U#
bx T#
bx S#
bx R#
bx Q#
bx P#
bx O#
bx N#
b0 M#
bx L#
xK#
bx J#
b0xxxxx I#
bx H#
xG#
bx F#
bx E#
bz D#
bx C#
bx B#
bx A#
bx @#
bx ?#
bx >#
bx =#
bx <#
bx ;#
bx :#
b1 9#
bx 8#
bx 7#
bx 6#
bx 5#
bz 4#
bz 3#
bz 2#
bx 1#
x0#
1/#
1.#
x-#
1,#
x+#
x*#
x)#
x(#
x'#
1&#
1%#
x$#
1##
x"#
x!#
x~"
x}"
x|"
1{"
1z"
xy"
1x"
xw"
xv"
xu"
xt"
xs"
1r"
1q"
xp"
1o"
xn"
xm"
xl"
xk"
xj"
1i"
1h"
xg"
1f"
xe"
xd"
xc"
xb"
xa"
1`"
1_"
x^"
1]"
x\"
x["
xZ"
xY"
xX"
1W"
1V"
xU"
1T"
xS"
xR"
xQ"
xP"
xO"
1N"
1M"
xL"
1K"
xJ"
xI"
xH"
xG"
xF"
xE"
xD"
xC"
xB"
xA"
x@"
x?"
bx >"
bz ="
x<"
1;"
1:"
x9"
18"
x7"
x6"
x5"
x4"
x3"
12"
11"
x0"
1/"
x."
x-"
x,"
x+"
x*"
1)"
1("
x'"
1&"
x%"
x$"
x#"
x""
x!"
1~
1}
x|
1{
xz
xy
xx
xw
xv
1u
1t
xs
1r
xq
xp
xo
xn
xm
1l
1k
xj
1i
xh
xg
xf
xe
xd
1c
1b
xa
1`
x_
x^
x]
x\
x[
1Z
1Y
xX
1W
xV
xU
xT
xS
xR
xQ
xP
xO
xN
xM
xL
xK
bx J
bz I
b0 H
b0 G
bx F
1E
0D
bx C
bx B
0A
0@
0?
0>
0=
0<
0;
0:
09
08
07
06
05
04
03
02
01
00
0/
bx .
bx -
0,
bx +
bx *
bx )
bx (
0'
b0 &
bx %
bx $
0#
bz "
0!
$end
#1
0L"
0U"
0^"
0g"
0p"
0y"
0$#
0-#
1G"
1P"
1Y"
1b"
1k"
1t"
1}"
1(#
0I"
0R"
0["
0d"
0m"
0v"
0!#
0*#
1J"
1S"
1\"
1e"
1n"
1w"
1"#
1+#
b0 "
b0 I
b0 ="
b0 2#
b0 3#
b0 4#
b0 D#
b0 R$
b0 S$
b0 Z$
0?"
0@"
0A"
0B"
0C"
0D"
0E"
0F"
1A
1@
19
0E
b10 &
b10 H
b10 X$
11
b10 9#
1!
#2
0!
#3
b1 G
1'
01
b100 9#
1!
#4
0!
#5
1F"
b1 "
b1 I
b1 ="
b1 2#
b1 3#
b1 4#
b1 D#
b1 R$
b1 S$
b1 Z$
b1 T$
b1 [$
0)#
0~"
0u"
0l"
0c"
0Z"
0Q"
b0 C
b0 >"
b0 1#
0H"
10#
1'#
1|"
1s"
1j"
1a"
1X"
1O"
1*#
1!#
1v"
1m"
1d"
1["
1R"
1I"
16"
17"
1-"
1."
1$"
1%"
1y
1z
1p
1q
1g
1h
1^
1_
1U
1V
0/#
0&#
0{"
0r"
0i"
0`"
0W"
0N"
x;"
x:"
x2"
x1"
x)"
x("
x~
x}
xu
xt
xl
xk
xc
xb
xZ
xY
0,#
0##
0x"
0o"
0f"
0]"
0T"
0K"
08"
0/"
0&"
0{
0r
0i
0`
0W
x#
1,
0'
b1 9#
1!
#6
0!
#7
09"
0'"
0|
0s
0j
0a
10"
14"
0+"
1""
1w
1n
1e
1\
1S
0X
0I"
0K
1L
0M
0N
0O
0P
0Q
0R
b1000000 "
b1000000 I
b1000000 ="
b1000000 2#
b1000000 3#
b1000000 4#
b1000000 D#
b1000000 R$
b1000000 S$
b1000000 Z$
0F"
1:
0A
0@
09
15
b11 &
b11 H
b11 X$
1G"
0L"
0*#
0!#
0v"
0m"
0d"
0["
0R"
1J"
06"
17"
1-"
0."
0$"
1%"
0y
1z
0p
1q
0g
1h
0^
1_
0U
1V
1/#
1&#
1{"
1r"
1i"
1`"
1W"
1N"
1;"
1:"
12"
11"
1)"
1("
1~
1}
1u
1t
1l
1k
1c
1b
1Z
1Y
1,#
1##
1x"
1o"
1f"
1]"
1T"
1K"
18"
1/"
1&"
1{
1r
1i
1`
1W
0#
0,
11
b10 9#
1!
#8
0!
#9
b10 G
1'
01
b100 9#
1!
#10
0!
#11
b0 .
b0 8#
b0 >#
b1000000 *
b1000000 F
b1000000 @#
b10 [$
1U$
b0 )
b0 <#
b0 V$
b0 (
b0 ;#
b0 W$
05"
03"
0#"
0x
0o
0f
0]
0T
1<"
b1000000 -
b1000000 J
b1000000 :#
1,"
1*"
1!"
1v
1m
1d
1[
1*#
1!#
1v"
1m"
1d"
1["
1R"
1I"
16"
1."
1$"
1y
1p
1g
1^
1U
0/#
0&#
0{"
0r"
0i"
0`"
0W"
0N"
0;"
01"
0)"
0~
0u
0l
0c
0Z
0,#
0##
0x"
0o"
0f"
0]"
0T"
0K"
08"
0/"
0&"
0{
0r
0i
0`
0W
1,
0'
b1 9#
1!
#12
0!
#13
0G"
1L"
1}"
0J"
0$#
1F"
1"#
b1 "
b1 I
b1 ="
b1 2#
b1 3#
b1 4#
b1 D#
b1 R$
b1 S$
b1 Z$
0@"
0:
1A
1@
19
05
b10 &
b10 H
b10 X$
0*#
0!#
0v"
0m"
0d"
0["
0R"
1I"
06"
0."
0$"
0y
0p
0g
0^
0U
1/#
1&#
1{"
1r"
1i"
1`"
1W"
1N"
1;"
11"
1)"
1~
1u
1l
1c
1Z
1,#
1##
1x"
1o"
1f"
1]"
1T"
1K"
18"
1/"
1&"
1{
1r
1i
1`
1W
0,
11
b10 9#
1!
#14
0!
#15
b11 G
1'
01
b100 9#
1!
#16
0!
#17
0F"
1E"
b10 "
b10 I
b10 ="
b10 2#
b10 3#
b10 4#
b10 D#
b10 R$
b10 S$
b10 Z$
b10 T$
b11 [$
0O"
b1 C
b1 >"
b1 1#
1H"
1*#
1!#
1v"
1m"
1d"
1["
1R"
1J"
16"
1."
1$"
1y
1p
1g
1^
1U
0/#
0&#
0{"
0r"
0i"
0`"
0W"
0M"
0;"
01"
0)"
0~
0u
0l
0c
0Z
0,#
0##
0x"
0o"
0f"
0]"
0T"
0K"
08"
0/"
0&"
0{
0r
0i
0`
0W
x#
1,
0'
b1 9#
1!
#18
0!
#19
0R"
0J"
15
18
bx "
bx I
bx ="
bx 2#
bx 3#
bx 4#
bx D#
bx R$
bx S$
bx Z$
0E"
1F"
0A
0@
17
09
b110 &
b110 H
b110 X$
1P"
1L"
0U"
0G"
0*#
0!#
0v"
0m"
0d"
0["
1S"
1I"
06"
0."
0$"
0y
0p
0g
0^
0U
1/#
1&#
1{"
1r"
1i"
1`"
1W"
1M"
1;"
11"
1)"
1~
1u
1l
1c
1Z
1,#
1##
1x"
1o"
1f"
1]"
1T"
1K"
18"
1/"
1&"
1{
1r
1i
1`
1W
0#
0,
11
b10 9#
1!
#20
0!
#21
b100 G
1'
01
b100 9#
1!
#22
0!
#23
b100 [$
1*#
1!#
1v"
1m"
1d"
1["
1R"
1J"
16"
1."
1$"
1y
1p
1g
1^
1U
0/#
0&#
0{"
0r"
0i"
0`"
0W"
0M"
0;"
01"
0)"
0~
0u
0l
0c
0Z
0,#
0##
0x"
0o"
0f"
0]"
0T"
0K"
08"
0/"
0&"
0{
0r
0i
0`
0W
1,
0'
b1 9#
1!
#24
0!
#25
05
08
bz "
bz I
bz ="
bz 2#
bz 3#
bz 4#
bz D#
bz R$
bz S$
bz Z$
07
1E
b0 &
b0 H
b0 X$
0*#
0!#
0v"
0m"
0d"
0["
0R"
0J"
06"
0."
0$"
0y
0p
0g
0^
0U
1/#
1&#
1{"
1r"
1i"
1`"
1W"
1M"
1;"
11"
1)"
1~
1u
1l
1c
1Z
1,#
1##
1x"
1o"
1f"
1]"
1T"
1K"
18"
1/"
1&"
1{
1r
1i
1`
1W
0,
11
b10 9#
1!
#26
0!
#27
b0 G
1'
01
b100 9#
1!
#28
0!
#29
b101 [$
1*#
1!#
1v"
1m"
1d"
1["
1R"
1J"
16"
1."
1$"
1y
1p
1g
1^
1U
0/#
0&#
0{"
0r"
0i"
0`"
0W"
0M"
0;"
01"
0)"
0~
0u
0l
0c
0Z
0,#
0##
0x"
0o"
0f"
0]"
0T"
0K"
08"
0/"
0&"
0{
0r
0i
0`
0W
1,
0'
b1 9#
1!
#30
0!
#31
0L"
1(#
1}"
1t"
1k"
1b"
1Y"
0P"
1G"
0-#
0$#
0y"
0p"
0g"
0^"
1U"
0I"
1+#
1"#
1w"
1n"
1e"
1\"
0S"
b10 "
b10 I
b10 ="
b10 2#
b10 3#
b10 4#
b10 D#
b10 R$
b10 S$
b10 Z$
0?"
0@"
0A"
0B"
0C"
0D"
1E"
0F"
1A
1@
19
0E
b10 &
b10 H
b10 X$
0*#
0!#
0v"
0m"
0d"
0["
1R"
1J"
06"
0."
0$"
0y
0p
0g
0^
0U
1/#
1&#
1{"
1r"
1i"
1`"
1W"
1M"
1;"
11"
1)"
1~
1u
1l
1c
1Z
1,#
1##
1x"
1o"
1f"
1]"
1T"
1K"
18"
1/"
1&"
1{
1r
1i
1`
1W
0,
11
b10 9#
1!
#32
0!
#33
b1 G
1'
01
b100 9#
1!
#34
0!
#35
1F"
b11 "
b11 I
b11 ="
b11 2#
b11 3#
b11 4#
b11 D#
b11 R$
b11 S$
b11 Z$
b11 T$
b110 [$
0X"
0H"
b10 C
b10 >"
b10 1#
1Q"
1O"
1*#
1!#
1v"
1m"
1d"
1["
1S"
1I"
16"
1."
1$"
1y
1p
1g
1^
1U
0/#
0&#
0{"
0r"
0i"
0`"
0V"
0N"
0;"
01"
0)"
0~
0u
0l
0c
0Z
0,#
0##
0x"
0o"
0f"
0]"
0T"
0K"
08"
0/"
0&"
0{
0r
0i
0`
0W
x#
1,
0'
b1 9#
1!
#36
0!
#37
0+"
1\
0S
0a
1X
1-"
0I"
1_
0V
1L
0Q
1R
b1000001 "
b1000001 I
b1000001 ="
b1000001 2#
b1000001 3#
b1000001 4#
b1000001 D#
b1000001 R$
b1000001 S$
b1000001 Z$
0F"
1:
0A
0@
09
15
b11 &
b11 H
b11 X$
1G"
0L"
0*#
0!#
0v"
0m"
0d"
0["
0S"
1J"
06"
0."
0$"
0y
0p
0g
0^
1U
1/#
1&#
1{"
1r"
1i"
1`"
1V"
1N"
1;"
11"
1)"
1~
1u
1l
1c
1Z
1,#
1##
1x"
1o"
1f"
1]"
1T"
1K"
18"
1/"
1&"
1{
1r
1i
1`
1W
0#
0,
11
b10 9#
1!
#38
0!
#39
b10 G
1'
01
b100 9#
1!
#40
0!
#41
bx .
bx 8#
bx >#
b1000001 *
b1000001 F
b1000001 @#
b111 [$
0U$
0[
b1 (
b1 ;#
b1 W$
b1000001 -
b1000001 J
b1000001 :#
1T
1*#
1!#
1v"
1m"
1d"
1["
1S"
1I"
16"
1."
1$"
1y
1p
1g
1^
1V
0/#
0&#
0{"
0r"
0i"
0`"
0V"
0N"
0;"
01"
0)"
0~
0u
0l
0c
0Y
0,#
0##
0x"
0o"
0f"
0]"
0T"
0K"
08"
0/"
0&"
0{
0r
0i
0`
0W
1,
0'
b1 9#
1!
#42
0!
