Alis_CoCC/test2.vcd
$date
	Fri Jul  4 01:04:09 2025
$end
$version
	Icarus Verilog
$end
$timescale
	1s
$end
$scope module top_level $end
$scope module combo $end
$var wire 1 ! clk $end
$var wire 8 " data_bus [7:0] $end
$var wire 1 # pcclk $end
$var wire 8 $ reg_a [7:0] $end
$var wire 8 % reg_b [7:0] $end
$var wire 8 & state [7:0] $end
$var wire 1 ' ram_clk $end
$var wire 3 ( operand2 [2:0] $end
$var wire 3 ) operand1 [2:0] $end
$var wire 8 * opcode [7:0] $end
$var wire 3 + oaddr [2:0] $end
$var wire 1 , internal_clk $end
$var wire 8 - instruction [7:0] $end
$var wire 3 . iaddr [2:0] $end
$var wire 1 / flag_zero $end
$var wire 1 0 flag_carry $end
$var wire 1 1 cycle_clk $end
$var wire 1 2 c_so $end
$var wire 1 3 c_si $end
$var wire 1 4 c_sd $end
$var wire 1 5 c_ro $end
$var wire 1 6 c_ri $end
$var wire 1 7 c_rfo $end
$var wire 1 8 c_rfi $end
$var wire 1 9 c_mi $end
$var wire 1 : c_ii $end
$var wire 1 ; c_halt $end
$var wire 1 < c_eo $end
$var wire 1 = c_ee $end
$var wire 1 > c_da $end
$var wire 1 ? c_cs $end
$var wire 1 @ c_co $end
$var wire 1 A c_ci $end
$var wire 4 B alu_mode [3:0] $end
$var wire 8 C addrbus [7:0] $end
$var reg 1 D reset $end
$scope module FINITO $end
$var wire 1 D reset $end
$var wire 1 E reset_cycle $end
$var wire 8 F opcode [7:0] $end
$var wire 1 1 clk $end
$var reg 4 G cycle [3:0] $end
$var reg 8 H state [7:0] $end
$upscope $end
$scope module IRelai $end
$var wire 8 I in [7:0] $end
$var wire 1 : en $end
$var wire 1 , clk $end
$var reg 8 J out [7:0] $end
$upscope $end
$scope module MARina $end
$var wire 8 K in [7:0] $end
$var wire 1 9 en $end
$var wire 1 , clk $end
$var reg 8 L out [7:0] $end
$upscope $end
$scope module bazamba $end
$var wire 8 M addr [7:0] $end
$var wire 8 N bus [7:0] $end
$var wire 1 6 we $end
$var wire 1 5 oe $end
$var wire 1 ' clk $end
$upscope $end
$scope module coc $end
$var wire 8 O idata [7:0] $end
$var wire 8 P odata [7:0] $end
$var wire 8 Q rega [7:0] $end
$var wire 8 R regb [7:0] $end
$var wire 1 8 we $end
$var wire 1 7 oe $end
$var wire 3 S oaddr [2:0] $end
$var wire 3 T iaddr [2:0] $end
$var wire 1 , clk $end
$upscope $end
$scope module cocks $end
$var wire 1 ! clk $end
$var wire 1 D reset $end
$var wire 1 ; halt $end
$var reg 3 U cnt [2:0] $end
$var reg 1 1 cycle_clk $end
$var reg 1 , internal_clk $end
$var reg 1 ' ram_clk $end
$upscope $end
$scope module deco $end
$var wire 8 V instruction [7:0] $end
$var wire 3 W operand2 [2:0] $end
$var wire 3 X operand1 [2:0] $end
$var wire 1 > c_da $end
$var reg 4 Y alu_mode [3:0] $end
$var reg 3 Z iaddr [2:0] $end
$var reg 3 [ oaddr [2:0] $end
$var reg 8 \ opcode [7:0] $end
$upscope $end
$scope module malu $end
$var wire 8 ] in_a [7:0] $end
$var wire 8 ^ in_b [7:0] $end
$var wire 4 _ mode [3:0] $end
$var wire 8 ` out [7:0] $end
$var wire 8 a xoder [7:0] $end
$var wire 8 b und [7:0] $end
$var wire 1 c subc $end
$var wire 8 d sub [7:0] $end
$var wire 8 e sqrt [7:0] $end
$var wire 8 f oder [7:0] $end
$var wire 1 < eo $end
$var wire 1 = ee $end
$var wire 1 g cad $end
$var wire 8 h add [7:0] $end
$var reg 1 0 flag_carry $end
$var reg 1 / flag_zero $end
$var reg 8 i r_out [7:0] $end
$scope module gore $end
$var wire 8 j a [7:0] $end
$var wire 8 k b [7:0] $end
$var wire 8 l out [7:0] $end
$upscope $end
$scope module hixbi $end
$var wire 8 m a [7:0] $end
$var wire 8 n b [7:0] $end
$var wire 8 o out [7:0] $end
$upscope $end
$scope module land $end
$var wire 8 p a [7:0] $end
$var wire 8 q b [7:0] $end
$var wire 8 r out [7:0] $end
$upscope $end
$scope module nadder $end
$var wire 8 s in_a [7:0] $end
$var wire 8 t in_b [7:0] $end
$var wire 8 u out_diff [7:0] $end
$var wire 1 c out_carry $end
$var wire 8 v cin [7:0] $end
$scope module S0 $end
$var wire 1 w a $end
$var wire 1 x b $end
$var wire 1 y cin $end
$var wire 1 z cout $end
$var wire 1 { diff $end
$upscope $end
$scope module S1 $end
$var wire 1 | a $end
$var wire 1 } b $end
$var wire 1 ~ cin $end
$var wire 1 !" cout $end
$var wire 1 "" diff $end
$upscope $end
$scope module S2 $end
$var wire 1 #" a $end
$var wire 1 $" b $end
$var wire 1 %" cin $end
$var wire 1 &" cout $end
$var wire 1 '" diff $end
$upscope $end
$scope module S3 $end
$var wire 1 (" a $end
$var wire 1 )" b $end
$var wire 1 *" cin $end
$var wire 1 +" cout $end
$var wire 1 ," diff $end
$upscope $end
$scope module S4 $end
$var wire 1 -" a $end
$var wire 1 ." b $end
$var wire 1 /" cin $end
$var wire 1 0" cout $end
$var wire 1 1" diff $end
$upscope $end
$scope module S5 $end
$var wire 1 2" a $end
$var wire 1 3" b $end
$var wire 1 4" cin $end
$var wire 1 5" cout $end
$var wire 1 6" diff $end
$upscope $end
$scope module S6 $end
$var wire 1 7" a $end
$var wire 1 8" b $end
$var wire 1 9" cin $end
$var wire 1 :" cout $end
$var wire 1 ;" diff $end
$upscope $end
$scope module S7 $end
$var wire 1 <" a $end
$var wire 1 =" b $end
$var wire 1 >" cin $end
$var wire 1 c cout $end
$var wire 1 ?" diff $end
$upscope $end
$upscope $end
$scope module squirty $end
$var wire 8 @" A [7:0] $end
$var wire 8 A" Sqrt [7:0] $end
$upscope $end
$scope module vadder $end
$var wire 8 B" in_a [7:0] $end
$var wire 8 C" in_b [7:0] $end
$var wire 8 D" out_sum [7:0] $end
$var wire 1 g out_carry $end
$var wire 8 E" c [7:0] $end
$scope module FA0 $end
$var wire 1 F" a $end
$var wire 1 G" b $end
$var wire 1 H" cin $end
$var wire 1 I" cout $end
$var wire 1 J" sum $end
$upscope $end
$scope module FA1 $end
$var wire 1 K" a $end
$var wire 1 L" b $end
$var wire 1 M" cin $end
$var wire 1 N" cout $end
$var wire 1 O" sum $end
$upscope $end
$scope module FA2 $end
$var wire 1 P" a $end
$var wire 1 Q" b $end
$var wire 1 R" cin $end
$var wire 1 S" cout $end
$var wire 1 T" sum $end
$upscope $end
$scope module FA3 $end
$var wire 1 U" a $end
$var wire 1 V" b $end
$var wire 1 W" cin $end
$var wire 1 X" cout $end
$var wire 1 Y" sum $end
$upscope $end
$scope module FA4 $end
$var wire 1 Z" a $end
$var wire 1 [" b $end
$var wire 1 \" cin $end
$var wire 1 ]" cout $end
$var wire 1 ^" sum $end
$upscope $end
$scope module FA5 $end
$var wire 1 _" a $end
$var wire 1 `" b $end
$var wire 1 a" cin $end
$var wire 1 b" cout $end
$var wire 1 c" sum $end
$upscope $end
$scope module FA6 $end
$var wire 1 d" a $end
$var wire 1 e" b $end
$var wire 1 f" cin $end
$var wire 1 g" cout $end
$var wire 1 h" sum $end
$upscope $end
$scope module FA7 $end
$var wire 1 i" a $end
$var wire 1 j" b $end
$var wire 1 k" cin $end
$var wire 1 g cout $end
$var wire 1 l" sum $end
$upscope $end
$upscope $end
$upscope $end
$scope module pc $end
$var wire 1 # clk $end
$var wire 1 m" down $end
$var wire 8 n" in [7:0] $end
$var wire 8 o" out [7:0] $end
$var wire 1 D reset $end
$var wire 1 ? set $end
$var wire 1 @ oe $end
$var reg 8 p" r_out [7:0] $end
$upscope $end
$scope module rolo $end
$var wire 1 A c_ci $end
$var wire 1 @ c_co $end
$var wire 1 ? c_cs $end
$var wire 1 9 c_mi $end
$var wire 1 8 c_rfi $end
$var wire 1 7 c_rfo $end
$var wire 1 6 c_ri $end
$var wire 1 5 c_ro $end
$var wire 1 4 c_sd $end
$var wire 1 3 c_si $end
$var wire 1 0 flag_carry $end
$var wire 1 / flag_zero $end
$var wire 1 q" jump_allowed $end
$var wire 3 r" operand1 [2:0] $end
$var wire 3 s" operand2 [2:0] $end
$var wire 8 t" state [7:0] $end
$var wire 1 2 c_so $end
$var wire 1 : c_ii $end
$var wire 1 ; c_halt $end
$var wire 1 < c_eo $end
$var wire 1 = c_ee $end
$var wire 1 > c_da $end
$upscope $end
$scope module schdeck $end
$var wire 1 , clk $end
$var wire 1 4 down $end
$var wire 8 u" in [7:0] $end
$var wire 1 2 oe $end
$var wire 8 v" out [7:0] $end
$var wire 1 D reset $end
$var wire 1 D set $end
$var reg 8 w" r_out [7:0] $end
$upscope $end
$upscope $end
$upscope $end
$enddefinitions $end
$comment Show the parameter values. $end
$dumpall
$end
#0
$dumpvars
b0 w"
bz v"
b11111111 u"
b0 t"
b0 s"
b0 r"
1q"
b0 p"
bz o"
bz n"
0m"
xl"
xk"
xj"
xi"
xh"
xg"
xf"
xe"
xd"
xc"
xb"
xa"
x`"
x_"
x^"
x]"
x\"
x["
xZ"
xY"
xX"
xW"
xV"
xU"
xT"
xS"
xR"
xQ"
xP"
xO"
xN"
xM"
xL"
xK"
xJ"
xI"
0H"
xG"
xF"
bzxxxxxxx E"
bx D"
bx C"
bx B"
b0xxxxx A"
bx @"
x?"
x>"
x="
x<"
x;"
x:"
x9"
x8"
x7"
x6"
x5"
x4"
x3"
x2"
x1"
x0"
x/"
x."
x-"
x,"
x+"
x*"
x)"
x("
x'"
x&"
x%"
x$"
x#"
x""
x!"
x~
x}
x|
x{
xz
0y
xx
xw
bzxxxxxxx v
bx u
bx t
bx s
bx r
bx q
bx p
bx o
bx n
bx m
bx l
bx k
bx j
b0 i
bx h
xg
bx f
b0xxxxx e
bx d
xc
bx b
bx a
bz `
bx _
bx ^
bx ]
b0 \
bx [
bx Z
bx Y
b0 X
b0 W
b0 V
b1 U
bx T
bx S
bx R
bx Q
bz P
bz O
bz N
b0 M
b0 L
bz K
b0 J
bz I
b0 H
b0 G
b0 F
1E
0D
b0 C
bx B
0A
0@
0?
0>
0=
0<
0;
0:
09
08
07
06
05
04
03
02
01
00
0/
bx .
b0 -
0,
bx +
b0 *
b0 )
b0 (
0'
b0 &
bx %
bx $
0#
bz "
0!
$end
#1
b1 w"
b100 U
1,
1!
#2
0!
#3
1A
19
b0 "
b0 I
b0 K
b0 N
b0 O
b0 P
b0 `
b0 n"
b0 o"
b0 v"
0E
1@
b10 &
b10 H
b10 t"
b10 U
11
0,
1!
#4
0!
#5
b1 G
b1 U
01
1'
1!
#6
0!
#7
b1 "
b1 I
b1 K
b1 N
b1 O
b1 P
b1 `
b1 n"
b1 o"
b1 v"
b1 p"
b10 w"
x#
b100 U
0'
1,
1!
#8
0!
#9
15
0A
09
b1000000 "
b1000000 I
b1000000 K
b1000000 N
b1000000 O
b1000000 P
b1000000 `
b1000000 n"
b1000000 o"
b1000000 v"
0@
1:
b11 &
b11 H
b11 t"
0#
b10 U
11
0,
1!
#10
0!
#11
b10 G
b1 U
01
1'
1!
#12
0!
#13
b0 .
b0 T
b0 Z
b1000000 *
b1000000 F
b1000000 \
b11 w"
b1000000 -
b1000000 J
b1000000 V
b100 U
0'
1,
1!
#14
0!
#15
05
1A
19
b1 "
b1 I
b1 K
b1 N
b1 O
b1 P
b1 `
b1 n"
b1 o"
b1 v"
1@
0:
b10 &
b10 H
b10 t"
b10 U
11
0,
1!
#16
0!
#17
b11 G
b1 U
01
1'
1!
#18
0!
#19
b10 "
b10 I
b10 K
b10 N
b10 O
b10 P
b10 `
b10 n"
b10 o"
b10 v"
b10 p"
b1 C
b1 L
b1 M
b100 w"
x#
b100 U
0'
1,
1!
#20
0!
#21
0A
09
b11111111 "
b11111111 I
b11111111 K
b11111111 N
b11111111 O
b11111111 P
b11111111 `
b11111111 n"
b11111111 o"
b11111111 v"
0@
18
15
b111 &
b111 H
b111 t"
0#
b10 U
11
0,
1!
#22
0!
#23
b100 G
b1 U
01
1'
1!
#24
0!
#25
0c
0>"
0:"
09"
05"
04"
00"
0/"
0+"
0*"
0&"
0%"
0!"
0~
bz0000000 v
0z
b11111111 f
b11111111 l
1w
1|
1#"
1("
1-"
12"
17"
1<"
b1111 e
b1111 A"
1F"
1K"
1P"
1U"
1Z"
1_"
1d"
1i"
b11111111 $
b11111111 Q
b11111111 ]
b11111111 j
b11111111 m
b11111111 p
b11111111 s
b11111111 @"
b11111111 B"
b101 w"
b100 U
0'
1,
1!
#26
0!
#27
bz "
bz I
bz K
bz N
bz O
bz P
bz `
bz n"
bz o"
bz v"
08
05
1E
b0 &
b0 H
b0 t"
b10 U
11
0,
1!
#28
0!
#29
b0 G
b1 U
01
1'
1!
#30
0!
#31
b110 w"
b100 U
0'
1,
1!
#32
0!
#33
1A
19
b10 "
b10 I
b10 K
b10 N
b10 O
b10 P
b10 `
b10 n"
b10 o"
b10 v"
0E
1@
b10 &
b10 H
b10 t"
b10 U
11
0,
1!
#34
0!
#35
b1 G
b1 U
01
1'
1!
#36
0!
#37
b11 "
b11 I
b11 K
b11 N
b11 O
b11 P
b11 `
b11 n"
b11 o"
b11 v"
b11 p"
b111 w"
b10 C
b10 L
b10 M
x#
b100 U
0'
1,
1!
#38
0!
#39
15
0A
09
b1000001 "
b1000001 I
b1000001 K
b1000001 N
b1000001 O
b1000001 P
b1000001 `
b1000001 n"
b1000001 o"
b1000001 v"
0@
1:
b11 &
b11 H
b11 t"
0#
b10 U
11
0,
1!
#40
0!
#41
b10 G
b1 U
01
1'
1!
#42
0!
#43
b1 .
b1 T
b1 Z
0q"
b1 (
b1 W
b1 s"
b1000001 -
b1000001 J
b1000001 V
b1000 w"
b100 U
0'
1,
1!
#44
0!
#45
05
1A
19
b11 "
b11 I
b11 K
b11 N
b11 O
b11 P
b11 `
b11 n"
b11 o"
b11 v"
1@
0:
b10 &
b10 H
b10 t"
b10 U
11
0,
1!
#46
0!
#47
b11 G
b1 U
01
1'
1!
#48
0!
#49
b100 "
b100 I
b100 K
b100 N
b100 O
b100 P
b100 `
b100 n"
b100 o"
b100 v"
b100 p"
b1001 w"
b11 C
b11 L
b11 M
x#
b100 U
0'
1,
1!
#50
0!
#51
0A
09
b1111 "
b1111 I
b1111 K
b1111 N
b1111 O
b1111 P
b1111 `
b1111 n"
b1111 o"
b1111 v"
0@
18
15
b111 &
b111 H
b111 t"
0#
b10 U
11
0,
1!
#52
0!
#53
b100 G
b1 U
01
1'
1!
#54
0!
#55
1g
0l"
1k"
1g"
0h"
1f"
1b"
0c"
1a"
1]"
1O"
1T"
1Y"
0^"
1M"
1R"
1W"
1\"
1I"
1N"
1S"
bz1111111 E"
1X"
0{
0""
0'"
0,"
11"
16"
1;"
b11110000 d
b11110000 u
1?"
b1110 h
b1110 D"
0J"
b11110000 a
b11110000 o
b1111 b
b1111 r
1x
1}
1$"
1)"
0."
03"
08"
0="
1G"
1L"
1Q"
1V"
0["
0`"
0e"
0j"
b1010 w"
b1111 %
b1111 R
b1111 ^
b1111 k
b1111 n
b1111 q
b1111 t
b1111 C"
b100 U
0'
1,
1!
#56
0!
#57
bz "
bz I
bz K
bz N
bz O
bz P
bz `
bz n"
bz o"
bz v"
08
05
1E
b0 &
b0 H
b0 t"
b10 U
11
0,
1!
#58
0!
#59
b0 G
b1 U
01
1'
1!
#60
0!
#61
b1011 w"
b100 U
0'
1,
1!
#62
0!
#63
1A
19
b100 "
b100 I
b100 K
b100 N
b100 O
b100 P
b100 `
b100 n"
b100 o"
b100 v"
0E
1@
b10 &
b10 H
b10 t"
b10 U
11
0,
1!
#64
0!
#65
b1 G
b1 U
01
1'
1!
#66
0!
#67
b101 "
b101 I
b101 K
b101 N
b101 O
b101 P
b101 `
b101 n"
b101 o"
b101 v"
b101 p"
b100 C
b100 L
b100 M
b1100 w"
x#
b100 U
0'
1,
1!
#68
0!
#69
15
0A
09
b10101 "
b10101 I
b10101 K
b10101 N
b10101 O
b10101 P
b10101 `
b10101 n"
b10101 o"
b10101 v"
0@
1:
b11 &
b11 H
b11 t"
0#
b10 U
11
0,
1!
#70
0!
#71
b10 G
b1 U
01
1'
1!
#72
0!
#73
b101 B
b101 Y
b101 _
b0 .
b0 T
b0 Z
b10000 *
b10000 F
b10000 \
b10 )
b10 X
b10 r"
b101 (
b101 W
b101 s"
b1101 w"
b10101 -
b10101 J
b10101 V
b100 U
0'
1,
1!
#74
0!
#75
b1111 i
bz "
bz I
bz K
bz N
bz O
bz P
bz `
bz n"
bz o"
bz v"
05
0:
1=
b1001 &
b1001 H
b1001 t"
b10 U
11
0,
1!
#76
0!
#77
b11 G
b1 U
01
1'
1!
#78
0!
#79
b1110 w"
b100 U
0'
1,
1!
#80
0!
#81
18
b1111 "
b1111 I
b1111 K
b1111 N
b1111 O
b1111 P
b1111 `
b1111 n"
b1111 o"
b1111 v"
1<
0=
b1010 &
b1010 H
b1010 t"
b10 U
11
0,
1!
#82
0!
#83
b100 G
b1 U
01
1'
1!
#84
0!
#85
b11 e
b11 A"
0a"
0f"
0k"
01"
06"
0;"
b0 d
b0 u
0?"
1^"
0]"
0c"
0b"
0h"
bz0001111 E"
0g"
b11110 h
b11110 D"
0l"
0g
b1111 f
b1111 l
b0 a
b0 o
0-"
02"
07"
0<"
0Z"
0_"
0d"
0i"
b1111 $
b1111 Q
b1111 ]
b1111 j
b1111 m
b1111 p
b1111 s
b1111 @"
b1111 B"
b1111 w"
b100 U
0'
1,
1!
#86
0!
#87
08
1E
bz "
bz I
bz K
bz N
bz O
bz P
bz `
bz n"
bz o"
bz v"
0<
b0 &
b0 H
b0 t"
b10 U
11
0,
1!
#88
0!
#89
b0 G
b1 U
01
1'
1!
#90
0!
#91
b10000 w"
b100 U
0'
1,
1!
#92
0!
#93
1A
19
b101 "
b101 I
b101 K
b101 N
b101 O
b101 P
b101 `
b101 n"
b101 o"
b101 v"
0E
1@
b10 &
b10 H
b10 t"
b10 U
11
0,
1!
#94
0!
#95
b1 G
b1 U
01
1'
1!
#96
0!
#97
b110 "
b110 I
b110 K
b110 N
b110 O
b110 P
b110 `
b110 n"
b110 o"
b110 v"
b110 p"
b10001 w"
b101 C
b101 L
b101 M
x#
b100 U
0'
1,
1!
#98
0!
#99
15
0A
09
b10110000 "
b10110000 I
b10110000 K
b10110000 N
b10110000 O
b10110000 P
b10110000 `
b10110000 n"
b10110000 o"
b10110000 v"
0@
1:
b11 &
b11 H
b11 t"
0#
b10 U
11
0,
1!
#100
0!
#101
b10 G
b1 U
01
1'
1!
#102
0!
#103
b0 +
b0 S
b0 [
b110 .
b110 T
b110 Z
bx B
bx Y
bx _
b10000000 *
b10000000 F
b10000000 \
1q"
b110 )
b110 X
b110 r"
b0 (
b0 W
b0 s"
b10110000 -
b10110000 J
b10110000 V
b10010 w"
b100 U
0'
1,
1!
#104
0!
#105
b1111 "
b1111 I
b1111 K
b1111 N
b1111 O
b1111 P
b1111 `
b1111 n"
b1111 o"
b1111 v"
05
17
18
0:
b100 &
b100 H
b100 t"
b10 U
11
0,
1!
#106
0!
#107
b11 G
b1 U
01
1'
1!
#108
0!
#109
b10011 w"
b100 U
0'
1,
1!
#110
0!
#111
bz "
bz I
bz K
bz N
bz O
bz P
bz `
bz n"
bz o"
bz v"
07
08
1E
b0 &
b0 H
b0 t"
b10 U
11
0,
1!
#112
0!
#113
b0 G
b1 U
01
1'
1!
#114
0!
#115
b10100 w"
b100 U
0'
1,
1!
#116
0!
#117
1A
19
b110 "
b110 I
b110 K
b110 N
b110 O
b110 P
b110 `
b110 n"
b110 o"
b110 v"
0E
1@
b10 &
b10 H
b10 t"
b10 U
11
0,
1!
#118
0!
#119
b1 G
b1 U
01
1'
1!
#120
0!
#121
b111 "
b111 I
b111 K
b111 N
b111 O
b111 P
b111 `
b111 n"
b111 o"
b111 v"
b111 p"
b10101 w"
b110 C
b110 L
b110 M
x#
b100 U
0'
1,
1!
#122
0!
#123
15
0A
09
b1010000 "
b1010000 I
b1010000 K
b1010000 N
b1010000 O
b1010000 P
b1010000 `
b1010000 n"
b1010000 o"
b1010000 v"
0@
1:
b11 &
b11 H
b11 t"
0#
b10 U
11
0,
1!
#124
0!
#125
b10 G
b1 U
01
1'
1!
#126
0!
#127
bx .
bx T
bx Z
b1010000 *
b1010000 F
b1010000 \
b10 )
b10 X
b10 r"
b1010000 -
b1010000 J
b1010000 V
b10110 w"
b100 U
0'
1,
1!
#128
0!
#129
05
1A
19
b111 "
b111 I
b111 K
b111 N
b111 O
b111 P
b111 `
b111 n"
b111 o"
b111 v"
1@
0:
b10 &
b10 H
b10 t"
b10 U
11
0,
1!
#130
0!
#131
b11 G
b1 U
01
1'
1!
#132
0!
#133
b1000 "
b1000 I
b1000 K
b1000 N
b1000 O
b1000 P
b1000 `
b1000 n"
b1000 o"
b1000 v"
b1000 p"
b10111 w"
b111 C
b111 L
b111 M
x#
b100 U
0'
1,
1!
#134
0!
#135
15
0A
b1111111 "
b1111111 I
b1111111 K
b1111111 N
b1111111 O
b1111111 P
b1111111 `
b1111111 n"
b1111111 o"
b1111111 v"
0@
b101 &
b101 H
b101 t"
0#
b10 U
11
0,
1!
#136
0!
#137
b100 G
b1 U
01
1'
1!
#138
0!
#139
b1011010 "
b1011010 I
b1011010 K
b1011010 N
b1011010 O
b1011010 P
b1011010 `
b1011010 n"
b1011010 o"
b1011010 v"
b1111111 C
b1111111 L
b1111111 M
b11000 w"
b100 U
0'
1,
1!
#140
0!
#141
b1111 "
b1111 I
b1111 K
b1111 N
b1111 O
b1111 P
b1111 `
b1111 n"
b1111 o"
b1111 v"
17
05
16
09
b1000 &
b1000 H
b1000 t"
b10 U
11
0,
1!
#142
0!
#143
b101 G
b1 U
01
1'
1!
#144
0!
#145
b11001 w"
b100 U
0'
1,
1!
#146
0!
#147
bz "
bz I
bz K
bz N
bz O
bz P
bz `
bz n"
bz o"
bz v"
07
06
1E
b0 &
b0 H
b0 t"
b10 U
11
0,
1!
#148
0!
#149
b0 G
b1 U
01
1'
1!
#150
0!
#151
b11010 w"
b100 U
0'
1,
1!
#152
0!
#153
1A
19
b1000 "
b1000 I
b1000 K
b1000 N
b1000 O
b1000 P
b1000 `
b1000 n"
b1000 o"
b1000 v"
0E
1@
b10 &
b10 H
b10 t"
b10 U
11
0,
1!
#154
0!
#155
b1 G
b1 U
01
1'
1!
#156
0!
#157
b1001 "
b1001 I
b1001 K
b1001 N
b1001 O
b1001 P
b1001 `
b1001 n"
b1001 o"
b1001 v"
b1001 p"
b11011 w"
b1000 C
b1000 L
b1000 M
x#
b100 U
0'
1,
1!
#158
0!
#159
15
0A
09
b101 "
b101 I
b101 K
b101 N
b101 O
b101 P
b101 `
b101 n"
b101 o"
b101 v"
0@
1:
b11 &
b11 H
b11 t"
0#
b10 U
11
0,
1!
#160
0!
#161
b10 G
b1 U
01
1'
1!
#162
0!
#163
b101 +
b101 S
b101 [
0q"
b0 )
b0 X
b0 r"
b101 (
b101 W
b101 s"
b101 -
b101 J
b101 V
b11100 w"
b100 U
0'
1,
1!
#164
0!
#165
05
1A
19
b1001 "
b1001 I
b1001 K
b1001 N
b1001 O
b1001 P
b1001 `
b1001 n"
b1001 o"
b1001 v"
1@
0:
b10 &
b10 H
b10 t"
b10 U
11
0,
1!
#166
0!
#167
b11 G
b1 U
01
1'
1!
#168
0!
#169
b1010 "
b1010 I
b1010 K
b1010 N
b1010 O
b1010 P
b1010 `
b1010 n"
b1010 o"
b1010 v"
b1010 p"
b11101 w"
b1001 C
b1001 L
b1001 M
x#
b100 U
0'
1,
1!
#170
0!
#171
15
0A
b1111111 "
b1111111 I
b1111111 K
b1111111 N
b1111111 O
b1111111 P
b1111111 `
b1111111 n"
b1111111 o"
b1111111 v"
0@
b101 &
b101 H
b101 t"
0#
b10 U
11
0,
1!
#172
0!
#173
b100 G
b1 U
01
1'
1!
#174
0!
#175
b1111 "
b1111 I
b1111 K
b1111 N
b1111 O
b1111 P
b1111 `
b1111 n"
b1111 o"
b1111 v"
b1111111 C
b1111111 L
b1111111 M
b11110 w"
b100 U
0'
1,
1!
#176
0!
#177
bx "
bx I
bx K
bx N
bx O
bx P
bx `
bx n"
bx o"
bx v"
17
05
16
09
b1000 &
b1000 H
b1000 t"
b10 U
11
0,
1!
#178
0!
#179
b101 G
b1 U
01
1'
1!
#180
0!
#181
b11111 w"
b100 U
0'
1,
1!
#182
0!
#183
bz "
bz I
bz K
bz N
bz O
bz P
bz `
bz n"
bz o"
bz v"
07
06
1E
b0 &
b0 H
b0 t"
b10 U
11
0,
1!
#184
0!
#185
b0 G
b1 U
01
1'
1!
#186
0!
#187
b100000 w"
b100 U
0'
1,
1!
#188
0!
#189
1A
19
b1010 "
b1010 I
b1010 K
b1010 N
b1010 O
b1010 P
b1010 `
b1010 n"
b1010 o"
b1010 v"
0E
1@
b10 &
b10 H
b10 t"
b10 U
11
0,
1!
#190
0!
#191
b1 G
b1 U
01
1'
1!
#192
0!
#193
b1011 "
b1011 I
b1011 K
b1011 N
b1011 O
b1011 P
b1011 `
b1011 n"
b1011 o"
b1011 v"
b1011 p"
b100001 w"
b1010 C
b1010 L
b1010 M
x#
b100 U
0'
1,
1!
#194
0!
#195
15
0A
09
b1000000 "
b1000000 I
b1000000 K
b1000000 N
b1000000 O
b1000000 P
b1000000 `
b1000000 n"
b1000000 o"
b1000000 v"
0@
1:
b11 &
b11 H
b11 t"
0#
b10 U
11
0,
1!
#196
0!
#197
b10 G
b1 U
01
1'
1!
#198
0!
#199
b0 .
b0 T
b0 Z
bx +
bx S
bx [
b1000000 *
b1000000 F
b1000000 \
1q"
b0 (
b0 W
b0 s"
b1000000 -
b1000000 J
b1000000 V
b100010 w"
b100 U
0'
1,
1!
#200
0!
#201
05
1A
19
b1011 "
b1011 I
b1011 K
b1011 N
b1011 O
b1011 P
b1011 `
b1011 n"
b1011 o"
b1011 v"
1@
0:
b10 &
b10 H
b10 t"
b10 U
11
0,
1!
#202
0!
#203
b11 G
b1 U
01
1'
1!
#204
0!
#205
b1100 "
b1100 I
b1100 K
b1100 N
b1100 O
b1100 P
b1100 `
b1100 n"
b1100 o"
b1100 v"
b1100 p"
b100011 w"
b1011 C
b1011 L
b1011 M
x#
b100 U
0'
1,
1!
#206
0!
#207
0A
09
b11111111 "
b11111111 I
b11111111 K
b11111111 N
b11111111 O
b11111111 P
b11111111 `
b11111111 n"
b11111111 o"
b11111111 v"
0@
18
15
b111 &
b111 H
b111 t"
0#
b10 U
11
0,
1!
#208
0!
#209
b100 G
b1 U
01
1'
1!
#210
0!
#211
1g
1k"
1g"
b1111 e
b1111 A"
1f"
1b"
1a"
11"
16"
1;"
b11110000 d
b11110000 u
1?"
0^"
bz1111111 E"
1]"
0c"
0h"
b1110 h
b1110 D"
0l"
b11111111 f
b11111111 l
b11110000 a
b11110000 o
1-"
12"
17"
1<"
1Z"
1_"
1d"
1i"
b100100 w"
b11111111 $
b11111111 Q
b11111111 ]
b11111111 j
b11111111 m
b11111111 p
b11111111 s
b11111111 @"
b11111111 B"
b100 U
0'
1,
1!
#212
0!
#213
bz "
bz I
bz K
bz N
bz O
bz P
bz `
bz n"
bz o"
bz v"
08
05
1E
b0 &
b0 H
b0 t"
b10 U
11
0,
1!
#214
0!
#215
b0 G
b1 U
01
1'
1!
#216
0!
#217
b100101 w"
b100 U
0'
1,
1!
#218
0!
#219
1A
19
b1100 "
b1100 I
b1100 K
b1100 N
b1100 O
b1100 P
b1100 `
b1100 n"
b1100 o"
b1100 v"
0E
1@
b10 &
b10 H
b10 t"
b10 U
11
0,
1!
#220
0!
#221
b1 G
b1 U
01
1'
1!
#222
0!
#223
b1101 "
b1101 I
b1101 K
b1101 N
b1101 O
b1101 P
b1101 `
b1101 n"
b1101 o"
b1101 v"
b1101 p"
b1100 C
b1100 L
b1100 M
b100110 w"
x#
b100 U
0'
1,
1!
#224
0!
#225
15
0A
09
b10110 "
b10110 I
b10110 K
b10110 N
b10110 O
b10110 P
b10110 `
b10110 n"
b10110 o"
b10110 v"
0@
1:
b11 &
b11 H
b11 t"
0#
b10 U
11
0,
1!
#226
0!
#227
b10 G
b1 U
01
1'
1!
#228
0!
#229
b110 B
b110 Y
b110 _
b0 .
b0 T
b0 Z
b10000 *
b10000 F
b10000 \
0q"
b10 )
b10 X
b10 r"
b110 (
b110 W
b110 s"
b100111 w"
b10110 -
b10110 J
b10110 V
b100 U
0'
1,
1!
#230
0!
#231
b11111111 i
bz "
bz I
bz K
bz N
bz O
bz P
bz `
bz n"
bz o"
bz v"
05
0:
1=
b1001 &
b1001 H
b1001 t"
b10 U
11
0,
1!
#232
0!
#233
b11 G
b1 U
01
1'
1!
#234
0!
#235
b101000 w"
b100 U
0'
1,
1!
#236
0!
#237
18
b11111111 "
b11111111 I
b11111111 K
b11111111 N
b11111111 O
b11111111 P
b11111111 `
b11111111 n"
b11111111 o"
b11111111 v"
1<
0=
b1010 &
b1010 H
b1010 t"
b10 U
11
0,
1!
#238
0!
#239
b100 G
b1 U
01
1'
1!
#240
0!
#241
b101001 w"
b100 U
0'
1,
1!
#242
0!
#243
08
1E
bz "
bz I
bz K
bz N
bz O
bz P
bz `
bz n"
bz o"
bz v"
0<
b0 &
b0 H
b0 t"
b10 U
11
0,
1!
#244
0!
#245
b0 G
b1 U
01
1'
1!
#246
0!
#247
b101010 w"
b100 U
0'
1,
1!
#248
0!
#249
1A
19
b1101 "
b1101 I
b1101 K
b1101 N
b1101 O
b1101 P
b1101 `
b1101 n"
b1101 o"
b1101 v"
0E
1@
b10 &
b10 H
b10 t"
b10 U
11
0,
1!
#250
0!
#251
b1 G
b1 U
01
1'
1!
#252
0!
